type,      ident,lcb,     lms,lbm,          lp.,   Lm.,         lam
chien,bull-dog,129,64,95,"17,5","11,5","13,8"
chien,bull-dog,154,74,76,20,"14,2","16,5"
chien,chien-ind,170,87,71,"17,9","12,3","15,9"
chien,chien-ind,188,94,73,"19,5","13,3","14,8"
chien,chien-ind,161,81,55,"17,1","12,1",13
chien,chien-ind,164,90,58,"17,5","12,7","14,7"
chien,berger allemand,203,109,65,"20,7",14,"16,8"
chien,levrier,178,97,57,"17,3","12,8","14,3"
chien,levrier,212,114,65,"20,5","14,3","15,5"
chien,levrier,221,123,62,"21,2","15,2",17
chien,colley,183,97,52,"19,3","12,9","13,5"
chien,doberman,212,112,65,"19,7","14,2",16
chien,setter,220,117,70,"19,8","14,3","15,6"
chien,chien des Pyrenees,216,113,72,"20,5","14,4","17,7"
chien,bas-rouge,216,112,75,"19,6",14,"16,4"
chien,berger allemand,205,110,68,"20,8","14,1","16,4"
chien,briard,228,122,78,"22,5","14,2","17,8"
chien,levrier,218,112,65,"20,3","13,9",17
chien,bull-mastif,190,93,78,"19,7","13,2",14
chien,briard,212,111,73,"20,5","13,7","16,6"
chien,setter,201,105,70,"19,8","14,3","15,9"
chien,setter,196,106,67,"18,5","12,6","14,2"
chien,boxer,158,71,71,"16,7","12,5","13,3"
chien,dogue allemand,255,126,86,"21,4",15,18
chien,dogue allemand,234,113,83,"21,3","14,8",17
chien,gronendal,205,105,70,19,"12,4","14,9"
chien,berger allemand,186,97,62,19,"13,2","14,2"
chien,dogue allemand,241,119,87,21,"14,7","18,3"
chien,saint-bernard,220,111,88,"22,5","15,4",18
chien,dogue allemand,242,120,85,"19,9","15,3","17,6"
loup,loup1,199,105,73,"23,4",15,"19,1"
loup,loup2,227,117,77,25,"15,3","18,6"
loup,loup3,228,122,82,"24,7",15,"18,5"
loup,loup4,232,123,83,"25,3","16,8","19,6"
loup,loup5,231,121,78,"23,5","16,5","19,6"
loup,loup6,215,118,74,"25,7","15,7",19
loup,loup7,184,100,69,"23,3","15,8","19,7"
loup,loup8,175,94,73,"22,2","14,8",17
loup,loup9,239,124,77,25,"16,8",27
loup,loup10,203,109,70,"23,3",15,"18,7"
loup,loup11,226,118,72,26,16,"19,4"
loup,loup12,226,119,77,"26,5","16,8","19,3"
decouverte,canide jussac,210,103,72,"20,5",14,"16,7"
