sommet u;sommet v;poids
N;V;32
N;R;21
V;T;16
V;N;32
R;N;21
R;A;58
R;T;24
R;E;53
T;V;16
T;R;24
T;B;63
T;A;25
A;T;25
A;R;58
A;E;12
A;B;35
E;R;53
E;A;12
E;B;41
E;C;38
B;T;63
B;A;35
B;E;41
B;D;19
D;B;19
D;C;18
C;E;38
C;D;18
