px,py
292.76164063444304,188.69706147007076
293.4922440537744,182.8522341154192
287.64741669912286,175.54619992210473
281.0719859251399,174.08499308344187
271.57414147383116,175.54619992210473
264.9987106998481,182.8522341154192
264.26810728051663,196.00309566338518
266.459917538511,206.23154353402538
273.035348312494,212.80697430800842
281.8025893444713,217.9211982433285
294.2228474731059,219.3824050819914
304.45129534374615,218.65180166265998
314.6797432143863,213.53757772733985
323.4469842463637,202.57852643736817
328.56120818168375,185.0440443734135
325.63879450435803,160.93413153547584
307.3737090210719,140.47723579419545
287.64741669912286,130.2487879235552
261.3456936031909,130.97939134288663
238.69698760391617,141.20783921352688
221.89310895929287,160.93413153547584
208.7422474113269,192.35007856672797
210.93405766932125,225.22723243664296
221.1625055399615,249.33714527458062
243.81121153923624,271.98585127385536
277.4189688284827,286.59791966048425
314.6797432143863,290.25093675714146
347.5568970843013,280.7530923058327
375.3198270188962,261.75740340321516
392.1237056635194,245.6841281779234
411.8499979854684,206.23154353402538
415.5030150821256,139.74663237486396
390.6624988248565,86.41258276366852
347.5568970843013,43.306981023113394
273.035348312494,16.27465450784996
202.16681663734397,23.580688701164377
137.14311231684542,63.0332733450623
81.61725244765569,140.47723579419545
59.69914986771238,232.53326662995738
79.42544218966134,328.2423145623766
142.25733625216554,416.6453283014813
217.5094884433043,465.5957573966881
294.9534508924373,492.62808391195153
376.78103385755907,493.3586873312829
451.3025826293663,479.4772223639855
519.979304046522,445.1388616554076
584.2724049476892,388.88239836688643
628.8392135269073,328.2423145623766
660.9857639774907,259.5655931452208
686.5568836540913,174.08499308344187
693.1323144280743,87.14318618300001
