Date,DOM,EXT,BDOM,BEXT
17/08/13,Arsenal,Aston Villa,1.0,3.0
17/08/13,Liverpool,Stoke,1.0,0.0
17/08/13,Norwich,Everton,2.0,2.0
17/08/13,Sunderland,Fulham,0.0,1.0
17/08/13,Swansea,Man United,1.0,4.0
17/08/13,West Brom,Southampton,0.0,1.0
17/08/13,West Ham,Cardiff,2.0,0.0
18/08/13,Chelsea,Hull,2.0,0.0
18/08/13,Crystal Palace,Tottenham,0.0,1.0
19/08/13,Man City,Newcastle,4.0,0.0
21/08/13,Chelsea,Aston Villa,2.0,1.0
24/08/13,Aston Villa,Liverpool,0.0,1.0
24/08/13,Everton,West Brom,0.0,0.0
24/08/13,Fulham,Arsenal,1.0,3.0
24/08/13,Hull,Norwich,1.0,0.0
24/08/13,Newcastle,West Ham,0.0,0.0
24/08/13,Southampton,Sunderland,1.0,1.0
24/08/13,Stoke,Crystal Palace,2.0,1.0
25/08/13,Cardiff,Man City,3.0,2.0
25/08/13,Tottenham,Swansea,1.0,0.0
26/08/13,Man United,Chelsea,0.0,0.0
31/08/13,Cardiff,Everton,0.0,0.0
31/08/13,Crystal Palace,Sunderland,3.0,1.0
31/08/13,Man City,Hull,2.0,0.0
31/08/13,Newcastle,Fulham,1.0,0.0
31/08/13,Norwich,Southampton,1.0,0.0
31/08/13,West Ham,Stoke,0.0,1.0
01/09/13,Arsenal,Tottenham,1.0,0.0
01/09/13,Liverpool,Man United,1.0,0.0
01/09/13,West Brom,Swansea,0.0,2.0
14/09/13,Aston Villa,Newcastle,1.0,2.0
14/09/13,Everton,Chelsea,1.0,0.0
14/09/13,Fulham,West Brom,1.0,1.0
14/09/13,Hull,Cardiff,1.0,1.0
14/09/13,Man United,Crystal Palace,2.0,0.0
14/09/13,Stoke,Man City,0.0,0.0
14/09/13,Sunderland,Arsenal,1.0,3.0
14/09/13,Tottenham,Norwich,2.0,0.0
15/09/13,Southampton,West Ham,0.0,0.0
16/09/13,Swansea,Liverpool,2.0,2.0
21/09/13,Chelsea,Fulham,2.0,0.0
21/09/13,Liverpool,Southampton,0.0,1.0
21/09/13,Newcastle,Hull,2.0,3.0
21/09/13,Norwich,Aston Villa,0.0,1.0
21/09/13,West Brom,Sunderland,3.0,0.0
21/09/13,West Ham,Everton,2.0,3.0
22/09/13,Arsenal,Stoke,3.0,1.0
22/09/13,Cardiff,Tottenham,0.0,1.0
22/09/13,Crystal Palace,Swansea,0.0,2.0
22/09/13,Man City,Man United,4.0,1.0
28/09/13,Aston Villa,Man City,3.0,2.0
28/09/13,Fulham,Cardiff,1.0,2.0
28/09/13,Hull,West Ham,1.0,0.0
28/09/13,Man United,West Brom,1.0,2.0
28/09/13,Southampton,Crystal Palace,2.0,0.0
28/09/13,Swansea,Arsenal,1.0,2.0
28/09/13,Tottenham,Chelsea,1.0,1.0
29/09/13,Stoke,Norwich,0.0,1.0
29/09/13,Sunderland,Liverpool,1.0,3.0
30/09/13,Everton,Newcastle,3.0,2.0
05/10/13,Cardiff,Newcastle,1.0,2.0
05/10/13,Fulham,Stoke,1.0,0.0
05/10/13,Hull,Aston Villa,0.0,0.0
05/10/13,Liverpool,Crystal Palace,3.0,1.0
05/10/13,Man City,Everton,3.0,1.0
05/10/13,Sunderland,Man United,1.0,2.0
06/10/13,Norwich,Chelsea,1.0,3.0
06/10/13,Southampton,Swansea,2.0,0.0
06/10/13,Tottenham,West Ham,0.0,3.0
06/10/13,West Brom,Arsenal,1.0,1.0
19/10/13,Arsenal,Norwich,4.0,1.0
19/10/13,Chelsea,Cardiff,4.0,1.0
19/10/13,Everton,Hull,2.0,1.0
19/10/13,Man United,Southampton,1.0,1.0
19/10/13,Newcastle,Liverpool,2.0,2.0
19/10/13,Stoke,West Brom,0.0,0.0
19/10/13,Swansea,Sunderland,4.0,0.0
19/10/13,West Ham,Man City,1.0,3.0
20/10/13,Aston Villa,Tottenham,0.0,2.0
21/10/13,Crystal Palace,Fulham,1.0,4.0
26/10/13,Aston Villa,Everton,0.0,2.0
26/10/13,Crystal Palace,Arsenal,0.0,2.0
26/10/13,Liverpool,West Brom,4.0,1.0
26/10/13,Man United,Stoke,3.0,2.0
26/10/13,Norwich,Cardiff,0.0,0.0
26/10/13,Southampton,Fulham,2.0,0.0
27/10/13,Chelsea,Man City,2.0,1.0
27/10/13,Sunderland,Newcastle,2.0,1.0
27/10/13,Swansea,West Ham,0.0,0.0
27/10/13,Tottenham,Hull,1.0,0.0
02/11/13,Arsenal,Liverpool,2.0,0.0
02/11/13,Fulham,Man United,1.0,3.0
02/11/13,Hull,Sunderland,1.0,0.0
02/11/13,Man City,Norwich,7.0,0.0
02/11/13,Newcastle,Chelsea,2.0,0.0
02/11/13,Stoke,Southampton,1.0,1.0
02/11/13,West Brom,Crystal Palace,2.0,0.0
02/11/13,West Ham,Aston Villa,0.0,0.0
03/11/13,Cardiff,Swansea,1.0,0.0
03/11/13,Everton,Tottenham,0.0,0.0
09/11/13,Aston Villa,Cardiff,2.0,0.0
09/11/13,Chelsea,West Brom,2.0,2.0
09/11/13,Crystal Palace,Everton,0.0,0.0
09/11/13,Liverpool,Fulham,4.0,0.0
09/11/13,Norwich,West Ham,3.0,1.0
09/11/13,Southampton,Hull,4.0,1.0
10/11/13,Man United,Arsenal,1.0,0.0
10/11/13,Sunderland,Man City,1.0,0.0
10/11/13,Swansea,Stoke,3.0,3.0
10/11/13,Tottenham,Newcastle,0.0,1.0
23/11/13,Arsenal,Southampton,2.0,0.0
23/11/13,Everton,Liverpool,3.0,3.0
23/11/13,Fulham,Swansea,1.0,2.0
23/11/13,Hull,Crystal Palace,0.0,1.0
23/11/13,Newcastle,Norwich,2.0,1.0
23/11/13,Stoke,Sunderland,2.0,0.0
23/11/13,West Ham,Chelsea,0.0,3.0
24/11/13,Cardiff,Man United,2.0,2.0
24/11/13,Man City,Tottenham,6.0,0.0
25/11/13,West Brom,Aston Villa,2.0,2.0
30/11/13,Aston Villa,Sunderland,0.0,0.0
30/11/13,Cardiff,Arsenal,0.0,3.0
30/11/13,Everton,Stoke,4.0,0.0
30/11/13,Newcastle,West Brom,2.0,1.0
30/11/13,Norwich,Crystal Palace,1.0,0.0
30/11/13,West Ham,Fulham,3.0,0.0
01/12/13,Chelsea,Southampton,3.0,1.0
01/12/13,Hull,Liverpool,3.0,1.0
01/12/13,Man City,Swansea,3.0,0.0
01/12/13,Tottenham,Man United,2.0,2.0
03/12/13,Crystal Palace,West Ham,1.0,0.0
04/12/13,Arsenal,Hull,2.0,0.0
04/12/13,Fulham,Tottenham,1.0,2.0
04/12/13,Liverpool,Norwich,5.0,1.0
04/12/13,Man United,Everton,0.0,1.0
04/12/13,Southampton,Aston Villa,2.0,3.0
04/12/13,Stoke,Cardiff,0.0,0.0
04/12/13,Sunderland,Chelsea,3.0,4.0
04/12/13,Swansea,Newcastle,3.0,0.0
04/12/13,West Brom,Man City,2.0,3.0
07/12/13,Crystal Palace,Cardiff,2.0,0.0
07/12/13,Liverpool,West Ham,4.0,1.0
07/12/13,Man United,Newcastle,0.0,1.0
07/12/13,Southampton,Man City,1.0,1.0
07/12/13,Stoke,Chelsea,3.0,2.0
07/12/13,Sunderland,Tottenham,1.0,2.0
07/12/13,West Brom,Norwich,0.0,2.0
08/12/13,Arsenal,Everton,1.0,1.0
08/12/13,Fulham,Aston Villa,2.0,0.0
09/12/13,Swansea,Hull,1.0,1.0
14/12/13,Cardiff,West Brom,1.0,0.0
14/12/13,Chelsea,Crystal Palace,2.0,1.0
14/12/13,Everton,Fulham,4.0,1.0
14/12/13,Hull,Stoke,0.0,0.0
14/12/13,Man City,Arsenal,6.0,3.0
14/12/13,Newcastle,Southampton,1.0,1.0
14/12/13,West Ham,Sunderland,0.0,0.0
15/12/13,Aston Villa,Man United,0.0,3.0
15/12/13,Norwich,Swansea,1.0,1.0
15/12/13,Tottenham,Liverpool,0.0,5.0
21/12/13,Crystal Palace,Newcastle,0.0,3.0
21/12/13,Fulham,Man City,2.0,4.0
21/12/13,Liverpool,Cardiff,3.0,1.0
21/12/13,Man United,West Ham,3.0,1.0
21/12/13,Stoke,Aston Villa,2.0,1.0
21/12/13,Sunderland,Norwich,0.0,0.0
21/12/13,West Brom,Hull,1.0,1.0
22/12/13,Southampton,Tottenham,2.0,3.0
22/12/13,Swansea,Everton,1.0,2.0
23/12/13,Arsenal,Chelsea,0.0,0.0
26/12/13,Aston Villa,Crystal Palace,0.0,1.0
26/12/13,Cardiff,Southampton,0.0,3.0
26/12/13,Chelsea,Swansea,1.0,0.0
26/12/13,Everton,Sunderland,0.0,1.0
26/12/13,Hull,Man United,2.0,3.0
26/12/13,Man City,Liverpool,2.0,1.0
26/12/13,Newcastle,Stoke,5.0,1.0
26/12/13,Norwich,Fulham,1.0,2.0
26/12/13,Tottenham,West Brom,1.0,1.0
26/12/13,West Ham,Arsenal,1.0,3.0
28/12/13,Aston Villa,Swansea,1.0,1.0
28/12/13,Cardiff,Sunderland,2.0,2.0
28/12/13,Hull,Fulham,6.0,0.0
28/12/13,Man City,Crystal Palace,1.0,0.0
28/12/13,Norwich,Man United,0.0,1.0
28/12/13,West Ham,West Brom,3.0,3.0
29/12/13,Chelsea,Liverpool,2.0,1.0
29/12/13,Everton,Southampton,2.0,1.0
29/12/13,Newcastle,Arsenal,0.0,1.0
29/12/13,Tottenham,Stoke,3.0,0.0
01/01/14,Arsenal,Cardiff,2.0,0.0
01/01/14,Crystal Palace,Norwich,1.0,1.0
01/01/14,Fulham,West Ham,2.0,1.0
01/01/14,Liverpool,Hull,2.0,0.0
01/01/14,Man United,Tottenham,1.0,2.0
01/01/14,Southampton,Chelsea,0.0,3.0
01/01/14,Stoke,Everton,1.0,1.0
01/01/14,Sunderland,Aston Villa,0.0,1.0
01/01/14,Swansea,Man City,2.0,3.0
01/01/14,West Brom,Newcastle,1.0,0.0
11/01/14,Cardiff,West Ham,0.0,2.0
11/01/14,Everton,Norwich,2.0,0.0
11/01/14,Fulham,Sunderland,1.0,4.0
11/01/14,Hull,Chelsea,0.0,2.0
11/01/14,Man United,Swansea,2.0,0.0
11/01/14,Southampton,West Brom,1.0,0.0
11/01/14,Tottenham,Crystal Palace,2.0,0.0
12/01/14,Newcastle,Man City,0.0,2.0
12/01/14,Stoke,Liverpool,3.0,5.0
13/01/14,Aston Villa,Arsenal,1.0,2.0
18/01/14,Arsenal,Fulham,2.0,0.0
18/01/14,Crystal Palace,Stoke,1.0,0.0
18/01/14,Liverpool,Aston Villa,2.0,2.0
18/01/14,Man City,Cardiff,4.0,2.0
18/01/14,Norwich,Hull,1.0,0.0
18/01/14,Sunderland,Southampton,2.0,2.0
18/01/14,West Ham,Newcastle,1.0,3.0
19/01/14,Chelsea,Man United,3.0,1.0
19/01/14,Swansea,Tottenham,1.0,3.0
20/01/14,West Brom,Everton,1.0,1.0
28/01/14,Crystal Palace,Hull,1.0,0.0
28/01/14,Liverpool,Everton,4.0,0.0
28/01/14,Man United,Cardiff,2.0,0.0
28/01/14,Norwich,Newcastle,0.0,0.0
28/01/14,Southampton,Arsenal,2.0,2.0
28/01/14,Swansea,Fulham,2.0,0.0
29/01/14,Aston Villa,West Brom,4.0,3.0
29/01/14,Chelsea,West Ham,0.0,0.0
29/01/14,Sunderland,Stoke,1.0,0.0
29/01/14,Tottenham,Man City,1.0,5.0
01/02/14,Cardiff,Norwich,2.0,1.0
01/02/14,Everton,Aston Villa,2.0,1.0
01/02/14,Fulham,Southampton,0.0,3.0
01/02/14,Hull,Tottenham,1.0,1.0
01/02/14,Newcastle,Sunderland,0.0,3.0
01/02/14,Stoke,Man United,2.0,1.0
01/02/14,West Ham,Swansea,2.0,0.0
02/02/14,Arsenal,Crystal Palace,2.0,0.0
02/02/14,West Brom,Liverpool,1.0,1.0
03/02/14,Man City,Chelsea,0.0,1.0
08/02/14,Aston Villa,West Ham,0.0,2.0
08/02/14,Chelsea,Newcastle,3.0,0.0
08/02/14,Crystal Palace,West Brom,3.0,1.0
08/02/14,Liverpool,Arsenal,5.0,1.0
08/02/14,Norwich,Man City,0.0,0.0
08/02/14,Southampton,Stoke,2.0,2.0
08/02/14,Sunderland,Hull,0.0,2.0
08/02/14,Swansea,Cardiff,3.0,0.0
09/02/14,Man United,Fulham,2.0,2.0
09/02/14,Tottenham,Everton,1.0,0.0
11/02/14,Cardiff,Aston Villa,0.0,0.0
11/02/14,Hull,Southampton,0.0,1.0
11/02/14,West Brom,Chelsea,1.0,1.0
11/02/14,West Ham,Norwich,2.0,0.0
12/02/14,Arsenal,Man United,0.0,0.0
12/02/14,Fulham,Liverpool,2.0,3.0
12/02/14,Newcastle,Tottenham,0.0,4.0
12/02/14,Stoke,Swansea,1.0,1.0
22/02/14,Arsenal,Sunderland,4.0,1.0
22/02/14,Cardiff,Hull,0.0,4.0
22/02/14,Chelsea,Everton,1.0,0.0
22/02/14,Crystal Palace,Man United,0.0,2.0
22/02/14,Man City,Stoke,1.0,0.0
22/02/14,West Brom,Fulham,1.0,1.0
22/02/14,West Ham,Southampton,3.0,1.0
23/02/14,Liverpool,Swansea,4.0,3.0
23/02/14,Newcastle,Aston Villa,1.0,0.0
23/02/14,Norwich,Tottenham,1.0,0.0
01/03/14,Everton,West Ham,1.0,0.0
01/03/14,Fulham,Chelsea,1.0,3.0
01/03/14,Hull,Newcastle,1.0,4.0
01/03/14,Southampton,Liverpool,0.0,3.0
01/03/14,Stoke,Arsenal,1.0,0.0
02/03/14,Aston Villa,Norwich,4.0,1.0
02/03/14,Swansea,Crystal Palace,1.0,1.0
02/03/14,Tottenham,Cardiff,1.0,0.0
08/03/14,Cardiff,Fulham,3.0,1.0
08/03/14,Chelsea,Tottenham,4.0,0.0
08/03/14,Crystal Palace,Southampton,0.0,1.0
08/03/14,Norwich,Stoke,1.0,1.0
08/03/14,West Brom,Man United,0.0,3.0
15/03/14,Aston Villa,Chelsea,1.0,0.0
15/03/14,Everton,Cardiff,2.0,1.0
15/03/14,Fulham,Newcastle,1.0,0.0
15/03/14,Hull,Man City,0.0,2.0
15/03/14,Southampton,Norwich,4.0,2.0
15/03/14,Stoke,West Ham,3.0,1.0
15/03/14,Sunderland,Crystal Palace,0.0,0.0
15/03/14,Swansea,West Brom,1.0,2.0
16/03/14,Man United,Liverpool,0.0,3.0
16/03/14,Tottenham,Arsenal,0.0,1.0
22/03/14,Cardiff,Liverpool,3.0,6.0
22/03/14,Chelsea,Arsenal,6.0,0.0
22/03/14,Everton,Swansea,3.0,2.0
22/03/14,Hull,West Brom,2.0,0.0
22/03/14,Man City,Fulham,5.0,0.0
22/03/14,Newcastle,Crystal Palace,1.0,0.0
22/03/14,Norwich,Sunderland,2.0,0.0
22/03/14,West Ham,Man United,0.0,2.0
23/03/14,Aston Villa,Stoke,1.0,4.0
23/03/14,Tottenham,Southampton,3.0,2.0
25/03/14,Arsenal,Swansea,2.0,2.0
25/03/14,Man United,Man City,0.0,3.0
25/03/14,Newcastle,Everton,0.0,3.0
26/03/14,Liverpool,Sunderland,2.0,1.0
26/03/14,West Ham,Hull,2.0,1.0
29/03/14,Arsenal,Man City,1.0,1.0
29/03/14,Crystal Palace,Chelsea,1.0,0.0
29/03/14,Man United,Aston Villa,4.0,1.0
29/03/14,Southampton,Newcastle,4.0,0.0
29/03/14,Stoke,Hull,1.0,0.0
29/03/14,Swansea,Norwich,3.0,0.0
29/03/14,West Brom,Cardiff,3.0,3.0
30/03/14,Fulham,Everton,1.0,3.0
30/03/14,Liverpool,Tottenham,4.0,0.0
31/03/14,Sunderland,West Ham,1.0,2.0
05/04/14,Aston Villa,Fulham,1.0,2.0
05/04/14,Cardiff,Crystal Palace,0.0,3.0
05/04/14,Chelsea,Stoke,3.0,0.0
05/04/14,Hull,Swansea,1.0,0.0
05/04/14,Man City,Southampton,4.0,1.0
05/04/14,Newcastle,Man United,0.0,4.0
05/04/14,Norwich,West Brom,0.0,1.0
06/04/14,Everton,Arsenal,3.0,0.0
06/04/14,West Ham,Liverpool,1.0,2.0
07/04/14,Tottenham,Sunderland,5.0,1.0
12/04/14,Crystal Palace,Aston Villa,1.0,0.0
12/04/14,Fulham,Norwich,1.0,0.0
12/04/14,Southampton,Cardiff,0.0,1.0
12/04/14,Stoke,Newcastle,1.0,0.0
12/04/14,Sunderland,Everton,0.0,1.0
12/04/14,West Brom,Tottenham,3.0,3.0
13/04/14,Liverpool,Man City,3.0,2.0
13/04/14,Swansea,Chelsea,0.0,1.0
15/04/14,Arsenal,West Ham,3.0,1.0
16/04/14,Everton,Crystal Palace,2.0,3.0
16/04/14,Man City,Sunderland,2.0,2.0
19/04/14,Aston Villa,Southampton,0.0,0.0
19/04/14,Cardiff,Stoke,1.0,1.0
19/04/14,Chelsea,Sunderland,1.0,2.0
19/04/14,Newcastle,Swansea,1.0,2.0
19/04/14,Tottenham,Fulham,3.0,1.0
19/04/14,West Ham,Crystal Palace,0.0,1.0
20/04/14,Everton,Man United,2.0,0.0
20/04/14,Hull,Arsenal,0.0,3.0
20/04/14,Norwich,Liverpool,2.0,3.0
21/04/14,Man City,West Brom,3.0,1.0
26/04/14,Fulham,Hull,2.0,2.0
26/04/14,Man United,Norwich,4.0,0.0
26/04/14,Southampton,Everton,2.0,0.0
26/04/14,Stoke,Tottenham,0.0,1.0
26/04/14,Swansea,Aston Villa,4.0,1.0
26/04/14,West Brom,West Ham,1.0,0.0
27/04/14,Crystal Palace,Man City,0.0,2.0
27/04/14,Liverpool,Chelsea,0.0,2.0
27/04/14,Sunderland,Cardiff,4.0,0.0
28/04/14,Arsenal,Newcastle,3.0,0.0
03/05/14,Aston Villa,Hull,3.0,1.0
03/05/14,Everton,Man City,2.0,3.0
03/05/14,Man United,Sunderland,0.0,1.0
03/05/14,Newcastle,Cardiff,3.0,0.0
03/05/14,Stoke,Fulham,4.0,1.0
03/05/14,Swansea,Southampton,0.0,1.0
03/05/14,West Ham,Tottenham,2.0,0.0
04/05/14,Arsenal,West Brom,1.0,0.0
04/05/14,Chelsea,Norwich,0.0,0.0
05/05/14,Crystal Palace,Liverpool,3.0,3.0
06/05/14,Man United,Hull,3.0,1.0
07/05/14,Man City,Aston Villa,4.0,0.0
07/05/14,Sunderland,West Brom,2.0,0.0
11/05/14,Cardiff,Chelsea,1.0,2.0
11/05/14,Fulham,Crystal Palace,2.0,2.0
11/05/14,Hull,Everton,0.0,2.0
11/05/14,Liverpool,Newcastle,2.0,1.0
11/05/14,Man City,West Ham,2.0,0.0
11/05/14,Norwich,Arsenal,0.0,2.0
11/05/14,Southampton,Man United,1.0,1.0
11/05/14,Sunderland,Swansea,1.0,3.0
11/05/14,Tottenham,Aston Villa,3.0,0.0
11/05/14,West Brom,Stoke,1.0,2.0
16/08/14,Arsenal,Crystal Palace,2.0,1.0
16/08/14,Leicester,Everton,2.0,2.0
16/08/14,Man United,Swansea,1.0,2.0
16/08/14,QPR,Hull,0.0,1.0
16/08/14,Stoke,Aston Villa,0.0,1.0
16/08/14,West Brom,Sunderland,2.0,2.0
16/08/14,West Ham,Tottenham,0.0,1.0
17/08/14,Liverpool,Southampton,2.0,1.0
17/08/14,Newcastle,Man City,0.0,2.0
18/08/14,Burnley,Chelsea,1.0,3.0
23/08/14,Aston Villa,Newcastle,0.0,0.0
23/08/14,Chelsea,Leicester,2.0,0.0
23/08/14,Crystal Palace,West Ham,1.0,3.0
23/08/14,Everton,Arsenal,2.0,2.0
23/08/14,Southampton,West Brom,0.0,0.0
23/08/14,Swansea,Burnley,1.0,0.0
24/08/14,Hull,Stoke,1.0,1.0
24/08/14,Sunderland,Man United,1.0,1.0
24/08/14,Tottenham,QPR,4.0,0.0
25/08/14,Man City,Liverpool,3.0,1.0
30/08/14,Burnley,Man United,0.0,0.0
30/08/14,Everton,Chelsea,3.0,6.0
30/08/14,Man City,Stoke,0.0,1.0
30/08/14,Newcastle,Crystal Palace,3.0,3.0
30/08/14,QPR,Sunderland,1.0,0.0
30/08/14,Swansea,West Brom,3.0,0.0
30/08/14,West Ham,Southampton,1.0,3.0
31/08/14,Aston Villa,Hull,2.0,1.0
31/08/14,Leicester,Arsenal,1.0,1.0
31/08/14,Tottenham,Liverpool,0.0,3.0
13/09/14,Arsenal,Man City,2.0,2.0
13/09/14,Chelsea,Swansea,4.0,2.0
13/09/14,Crystal Palace,Burnley,0.0,0.0
13/09/14,Liverpool,Aston Villa,0.0,1.0
13/09/14,Southampton,Newcastle,4.0,0.0
13/09/14,Stoke,Leicester,0.0,1.0
13/09/14,Sunderland,Tottenham,2.0,2.0
13/09/14,West Brom,Everton,0.0,2.0
14/09/14,Man United,QPR,4.0,0.0
15/09/14,Hull,West Ham,2.0,2.0
20/09/14,Aston Villa,Arsenal,0.0,3.0
20/09/14,Burnley,Sunderland,0.0,0.0
20/09/14,Newcastle,Hull,2.0,2.0
20/09/14,QPR,Stoke,2.0,2.0
20/09/14,Swansea,Southampton,0.0,1.0
20/09/14,West Ham,Liverpool,3.0,1.0
21/09/14,Everton,Crystal Palace,2.0,3.0
21/09/14,Leicester,Man United,5.0,3.0
21/09/14,Man City,Chelsea,1.0,1.0
21/09/14,Tottenham,West Brom,0.0,1.0
27/09/14,Arsenal,Tottenham,1.0,1.0
27/09/14,Chelsea,Aston Villa,3.0,0.0
27/09/14,Crystal Palace,Leicester,2.0,0.0
27/09/14,Hull,Man City,2.0,4.0
27/09/14,Liverpool,Everton,1.0,1.0
27/09/14,Man United,West Ham,2.0,1.0
27/09/14,Southampton,QPR,2.0,1.0
27/09/14,Sunderland,Swansea,0.0,0.0
28/09/14,West Brom,Burnley,4.0,0.0
29/09/14,Stoke,Newcastle,1.0,0.0
04/10/14,Aston Villa,Man City,0.0,2.0
04/10/14,Hull,Crystal Palace,2.0,0.0
04/10/14,Leicester,Burnley,2.0,2.0
04/10/14,Liverpool,West Brom,2.0,1.0
04/10/14,Sunderland,Stoke,3.0,1.0
04/10/14,Swansea,Newcastle,2.0,2.0
05/10/14,Chelsea,Arsenal,2.0,0.0
05/10/14,Man United,Everton,2.0,1.0
05/10/14,Tottenham,Southampton,1.0,0.0
05/10/14,West Ham,QPR,2.0,0.0
18/10/14,Arsenal,Hull,2.0,2.0
18/10/14,Burnley,West Ham,1.0,3.0
18/10/14,Crystal Palace,Chelsea,1.0,2.0
18/10/14,Everton,Aston Villa,3.0,0.0
18/10/14,Man City,Tottenham,4.0,1.0
18/10/14,Newcastle,Leicester,1.0,0.0
18/10/14,Southampton,Sunderland,8.0,0.0
19/10/14,QPR,Liverpool,2.0,3.0
19/10/14,Stoke,Swansea,2.0,1.0
20/10/14,West Brom,Man United,2.0,2.0
25/10/14,Liverpool,Hull,0.0,0.0
25/10/14,Southampton,Stoke,1.0,0.0
25/10/14,Sunderland,Arsenal,0.0,2.0
25/10/14,Swansea,Leicester,2.0,0.0
25/10/14,West Brom,Crystal Palace,2.0,2.0
25/10/14,West Ham,Man City,2.0,1.0
26/10/14,Burnley,Everton,1.0,3.0
26/10/14,Man United,Chelsea,1.0,1.0
26/10/14,Tottenham,Newcastle,1.0,2.0
27/10/14,QPR,Aston Villa,2.0,0.0
01/11/14,Arsenal,Burnley,3.0,0.0
01/11/14,Chelsea,QPR,2.0,1.0
01/11/14,Everton,Swansea,0.0,0.0
01/11/14,Hull,Southampton,0.0,1.0
01/11/14,Leicester,West Brom,0.0,1.0
01/11/14,Newcastle,Liverpool,1.0,0.0
01/11/14,Stoke,West Ham,2.0,2.0
02/11/14,Aston Villa,Tottenham,1.0,2.0
02/11/14,Man City,Man United,1.0,0.0
03/11/14,Crystal Palace,Sunderland,1.0,3.0
08/11/14,Burnley,Hull,1.0,0.0
08/11/14,Liverpool,Chelsea,1.0,2.0
08/11/14,Man United,Crystal Palace,1.0,0.0
08/11/14,QPR,Man City,2.0,2.0
08/11/14,Southampton,Leicester,2.0,0.0
08/11/14,West Ham,Aston Villa,0.0,0.0
09/11/14,Sunderland,Everton,1.0,1.0
09/11/14,Swansea,Arsenal,2.0,1.0
09/11/14,Tottenham,Stoke,1.0,2.0
09/11/14,West Brom,Newcastle,0.0,2.0
22/11/14,Arsenal,Man United,1.0,2.0
22/11/14,Chelsea,West Brom,2.0,0.0
22/11/14,Everton,West Ham,2.0,1.0
22/11/14,Leicester,Sunderland,0.0,0.0
22/11/14,Man City,Swansea,2.0,1.0
22/11/14,Newcastle,QPR,1.0,0.0
22/11/14,Stoke,Burnley,1.0,2.0
23/11/14,Crystal Palace,Liverpool,3.0,1.0
23/11/14,Hull,Tottenham,1.0,2.0
24/11/14,Aston Villa,Southampton,1.0,1.0
29/11/14,Burnley,Aston Villa,1.0,1.0
29/11/14,Liverpool,Stoke,1.0,0.0
29/11/14,Man United,Hull,3.0,0.0
29/11/14,QPR,Leicester,3.0,2.0
29/11/14,Sunderland,Chelsea,0.0,0.0
29/11/14,Swansea,Crystal Palace,1.0,1.0
29/11/14,West Brom,Arsenal,0.0,1.0
29/11/14,West Ham,Newcastle,1.0,0.0
30/11/14,Southampton,Man City,0.0,3.0
30/11/14,Tottenham,Everton,2.0,1.0
02/12/14,Burnley,Newcastle,1.0,1.0
02/12/14,Crystal Palace,Aston Villa,0.0,1.0
02/12/14,Leicester,Liverpool,1.0,3.0
02/12/14,Man United,Stoke,2.0,1.0
02/12/14,Swansea,QPR,2.0,0.0
02/12/14,West Brom,West Ham,1.0,2.0
03/12/14,Arsenal,Southampton,1.0,0.0
03/12/14,Chelsea,Tottenham,3.0,0.0
03/12/14,Everton,Hull,1.0,1.0
03/12/14,Sunderland,Man City,1.0,4.0
06/12/14,Hull,West Brom,0.0,0.0
06/12/14,Liverpool,Sunderland,0.0,0.0
06/12/14,Man City,Everton,1.0,0.0
06/12/14,Newcastle,Chelsea,2.0,1.0
06/12/14,QPR,Burnley,2.0,0.0
06/12/14,Stoke,Arsenal,3.0,2.0
06/12/14,Tottenham,Crystal Palace,0.0,0.0
07/12/14,Aston Villa,Leicester,2.0,1.0
07/12/14,West Ham,Swansea,3.0,1.0
08/12/14,Southampton,Man United,1.0,2.0
13/12/14,Arsenal,Newcastle,4.0,1.0
13/12/14,Burnley,Southampton,1.0,0.0
13/12/14,Chelsea,Hull,2.0,0.0
13/12/14,Crystal Palace,Stoke,1.0,1.0
13/12/14,Leicester,Man City,0.0,1.0
13/12/14,Sunderland,West Ham,1.0,1.0
13/12/14,West Brom,Aston Villa,1.0,0.0
14/12/14,Man United,Liverpool,3.0,0.0
14/12/14,Swansea,Tottenham,1.0,2.0
15/12/14,Everton,QPR,3.0,1.0
20/12/14,Aston Villa,Man United,1.0,1.0
20/12/14,Hull,Swansea,0.0,1.0
20/12/14,Man City,Crystal Palace,3.0,0.0
20/12/14,QPR,West Brom,3.0,2.0
20/12/14,Southampton,Everton,3.0,0.0
20/12/14,Tottenham,Burnley,2.0,1.0
20/12/14,West Ham,Leicester,2.0,0.0
21/12/14,Liverpool,Arsenal,2.0,2.0
21/12/14,Newcastle,Sunderland,0.0,1.0
22/12/14,Stoke,Chelsea,0.0,2.0
26/12/14,Arsenal,QPR,2.0,1.0
26/12/14,Burnley,Liverpool,0.0,1.0
26/12/14,Chelsea,West Ham,2.0,0.0
26/12/14,Crystal Palace,Southampton,1.0,3.0
26/12/14,Everton,Stoke,0.0,1.0
26/12/14,Leicester,Tottenham,1.0,2.0
26/12/14,Man United,Newcastle,3.0,1.0
26/12/14,Sunderland,Hull,1.0,3.0
26/12/14,Swansea,Aston Villa,1.0,0.0
26/12/14,West Brom,Man City,1.0,3.0
28/12/14,Aston Villa,Sunderland,0.0,0.0
28/12/14,Hull,Leicester,0.0,1.0
28/12/14,Man City,Burnley,2.0,2.0
28/12/14,Newcastle,Everton,3.0,2.0
28/12/14,QPR,Crystal Palace,0.0,0.0
28/12/14,Southampton,Chelsea,1.0,1.0
28/12/14,Stoke,West Brom,2.0,0.0
28/12/14,Tottenham,Man United,0.0,0.0
28/12/14,West Ham,Arsenal,1.0,2.0
29/12/14,Liverpool,Swansea,4.0,1.0
01/01/15,Aston Villa,Crystal Palace,0.0,0.0
01/01/15,Hull,Everton,2.0,0.0
01/01/15,Liverpool,Leicester,2.0,2.0
01/01/15,Man City,Sunderland,3.0,2.0
01/01/15,Newcastle,Burnley,3.0,3.0
01/01/15,QPR,Swansea,1.0,1.0
01/01/15,Southampton,Arsenal,2.0,0.0
01/01/15,Stoke,Man United,1.0,1.0
01/01/15,Tottenham,Chelsea,5.0,3.0
01/01/15,West Ham,West Brom,1.0,1.0
10/01/15,Burnley,QPR,2.0,1.0
10/01/15,Chelsea,Newcastle,2.0,0.0
10/01/15,Crystal Palace,Tottenham,2.0,1.0
10/01/15,Everton,Man City,1.0,1.0
10/01/15,Leicester,Aston Villa,1.0,0.0
10/01/15,Sunderland,Liverpool,0.0,1.0
10/01/15,Swansea,West Ham,1.0,1.0
10/01/15,West Brom,Hull,1.0,0.0
11/01/15,Arsenal,Stoke,3.0,0.0
11/01/15,Man United,Southampton,0.0,1.0
17/01/15,Aston Villa,Liverpool,0.0,2.0
17/01/15,Burnley,Crystal Palace,2.0,3.0
17/01/15,Leicester,Stoke,0.0,1.0
17/01/15,Newcastle,Southampton,1.0,2.0
17/01/15,QPR,Man United,0.0,2.0
17/01/15,Swansea,Chelsea,0.0,5.0
17/01/15,Tottenham,Sunderland,2.0,1.0
18/01/15,Man City,Arsenal,0.0,2.0
18/01/15,West Ham,Hull,3.0,0.0
19/01/15,Everton,West Brom,0.0,0.0
31/01/15,Chelsea,Man City,1.0,1.0
31/01/15,Crystal Palace,Everton,0.0,1.0
31/01/15,Hull,Newcastle,0.0,3.0
31/01/15,Liverpool,West Ham,2.0,0.0
31/01/15,Man United,Leicester,3.0,1.0
31/01/15,Stoke,QPR,3.0,1.0
31/01/15,Sunderland,Burnley,2.0,0.0
31/01/15,West Brom,Tottenham,0.0,3.0
01/02/15,Arsenal,Aston Villa,5.0,0.0
01/02/15,Southampton,Swansea,0.0,1.0
07/02/15,Aston Villa,Chelsea,1.0,2.0
07/02/15,Everton,Liverpool,0.0,0.0
07/02/15,Leicester,Crystal Palace,0.0,1.0
07/02/15,Man City,Hull,1.0,1.0
07/02/15,QPR,Southampton,0.0,1.0
07/02/15,Swansea,Sunderland,1.0,1.0
07/02/15,Tottenham,Arsenal,2.0,1.0
08/02/15,Burnley,West Brom,2.0,2.0
08/02/15,Newcastle,Stoke,1.0,1.0
08/02/15,West Ham,Man United,1.0,1.0
10/02/15,Arsenal,Leicester,2.0,1.0
10/02/15,Hull,Aston Villa,2.0,0.0
10/02/15,Liverpool,Tottenham,3.0,2.0
10/02/15,Sunderland,QPR,0.0,2.0
11/02/15,Chelsea,Everton,1.0,0.0
11/02/15,Crystal Palace,Newcastle,1.0,1.0
11/02/15,Man United,Burnley,3.0,1.0
11/02/15,Southampton,West Ham,0.0,0.0
11/02/15,Stoke,Man City,1.0,4.0
11/02/15,West Brom,Swansea,2.0,0.0
21/02/15,Aston Villa,Stoke,1.0,2.0
21/02/15,Chelsea,Burnley,1.0,1.0
21/02/15,Crystal Palace,Arsenal,1.0,2.0
21/02/15,Hull,QPR,2.0,1.0
21/02/15,Man City,Newcastle,5.0,0.0
21/02/15,Sunderland,West Brom,0.0,0.0
21/02/15,Swansea,Man United,2.0,1.0
22/02/15,Everton,Leicester,2.0,2.0
22/02/15,Southampton,Liverpool,0.0,2.0
22/02/15,Tottenham,West Ham,2.0,2.0
28/02/15,Burnley,Swansea,0.0,1.0
28/02/15,Man United,Sunderland,2.0,0.0
28/02/15,Newcastle,Aston Villa,1.0,0.0
28/02/15,Stoke,Hull,1.0,0.0
28/02/15,West Brom,Southampton,1.0,0.0
28/02/15,West Ham,Crystal Palace,1.0,3.0
01/03/15,Arsenal,Everton,2.0,0.0
01/03/15,Liverpool,Man City,2.0,1.0
03/03/15,Aston Villa,West Brom,2.0,1.0
03/03/15,Hull,Sunderland,1.0,1.0
03/03/15,Southampton,Crystal Palace,1.0,0.0
04/03/15,Liverpool,Burnley,2.0,0.0
04/03/15,Man City,Leicester,2.0,0.0
04/03/15,Newcastle,Man United,0.0,1.0
04/03/15,QPR,Arsenal,1.0,2.0
04/03/15,Stoke,Everton,2.0,0.0
04/03/15,Tottenham,Swansea,3.0,2.0
04/03/15,West Ham,Chelsea,0.0,1.0
07/03/15,QPR,Tottenham,1.0,2.0
14/03/15,Arsenal,West Ham,3.0,0.0
14/03/15,Burnley,Man City,1.0,0.0
14/03/15,Crystal Palace,QPR,3.0,1.0
14/03/15,Leicester,Hull,0.0,0.0
14/03/15,Sunderland,Aston Villa,0.0,4.0
14/03/15,West Brom,Stoke,1.0,0.0
15/03/15,Chelsea,Southampton,1.0,1.0
15/03/15,Everton,Newcastle,3.0,0.0
15/03/15,Man United,Tottenham,3.0,0.0
16/03/15,Swansea,Liverpool,0.0,1.0
21/03/15,Aston Villa,Swansea,0.0,1.0
21/03/15,Man City,West Brom,3.0,0.0
21/03/15,Newcastle,Arsenal,1.0,2.0
21/03/15,Southampton,Burnley,2.0,0.0
21/03/15,Stoke,Crystal Palace,1.0,2.0
21/03/15,Tottenham,Leicester,4.0,3.0
21/03/15,West Ham,Sunderland,1.0,0.0
22/03/15,Hull,Chelsea,2.0,3.0
22/03/15,Liverpool,Man United,1.0,2.0
22/03/15,QPR,Everton,1.0,2.0
04/04/15,Arsenal,Liverpool,4.0,1.0
04/04/15,Chelsea,Stoke,2.0,1.0
04/04/15,Everton,Southampton,1.0,0.0
04/04/15,Leicester,West Ham,2.0,1.0
04/04/15,Man United,Aston Villa,3.0,1.0
04/04/15,Swansea,Hull,3.0,1.0
04/04/15,West Brom,QPR,1.0,4.0
05/04/15,Burnley,Tottenham,0.0,0.0
05/04/15,Sunderland,Newcastle,1.0,0.0
06/04/15,Crystal Palace,Man City,2.0,1.0
07/04/15,Aston Villa,QPR,3.0,3.0
11/04/15,Burnley,Arsenal,0.0,1.0
11/04/15,Southampton,Hull,2.0,0.0
11/04/15,Sunderland,Crystal Palace,1.0,4.0
11/04/15,Swansea,Everton,1.0,1.0
11/04/15,Tottenham,Aston Villa,0.0,1.0
11/04/15,West Brom,Leicester,2.0,3.0
11/04/15,West Ham,Stoke,1.0,1.0
12/04/15,Man United,Man City,4.0,2.0
12/04/15,QPR,Chelsea,0.0,1.0
13/04/15,Liverpool,Newcastle,2.0,0.0
18/04/15,Chelsea,Man United,1.0,0.0
18/04/15,Crystal Palace,West Brom,0.0,2.0
18/04/15,Everton,Burnley,1.0,0.0
18/04/15,Leicester,Swansea,2.0,0.0
18/04/15,Stoke,Southampton,2.0,1.0
19/04/15,Man City,West Ham,2.0,0.0
19/04/15,Newcastle,Tottenham,1.0,3.0
25/04/15,Burnley,Leicester,0.0,1.0
25/04/15,Crystal Palace,Hull,0.0,2.0
25/04/15,Man City,Aston Villa,3.0,2.0
25/04/15,Newcastle,Swansea,2.0,3.0
25/04/15,QPR,West Ham,0.0,0.0
25/04/15,Southampton,Tottenham,2.0,2.0
25/04/15,Stoke,Sunderland,1.0,1.0
25/04/15,West Brom,Liverpool,0.0,0.0
26/04/15,Arsenal,Chelsea,0.0,0.0
26/04/15,Everton,Man United,3.0,0.0
28/04/15,Hull,Liverpool,1.0,0.0
29/04/15,Leicester,Chelsea,1.0,3.0
02/05/15,Aston Villa,Everton,3.0,2.0
02/05/15,Leicester,Newcastle,3.0,0.0
02/05/15,Liverpool,QPR,2.0,1.0
02/05/15,Man United,West Brom,0.0,1.0
02/05/15,Sunderland,Southampton,2.0,1.0
02/05/15,Swansea,Stoke,2.0,0.0
02/05/15,West Ham,Burnley,1.0,0.0
03/05/15,Chelsea,Crystal Palace,1.0,0.0
03/05/15,Tottenham,Man City,0.0,1.0
04/05/15,Hull,Arsenal,1.0,3.0
09/05/15,Aston Villa,West Ham,1.0,0.0
09/05/15,Crystal Palace,Man United,1.0,2.0
09/05/15,Everton,Sunderland,0.0,2.0
09/05/15,Hull,Burnley,0.0,1.0
09/05/15,Leicester,Southampton,2.0,0.0
09/05/15,Newcastle,West Brom,1.0,1.0
09/05/15,Stoke,Tottenham,3.0,0.0
10/05/15,Chelsea,Liverpool,1.0,1.0
10/05/15,Man City,QPR,6.0,0.0
11/05/15,Arsenal,Swansea,0.0,1.0
16/05/15,Burnley,Stoke,0.0,0.0
16/05/15,Liverpool,Crystal Palace,1.0,3.0
16/05/15,QPR,Newcastle,2.0,1.0
16/05/15,Southampton,Aston Villa,6.0,1.0
16/05/15,Sunderland,Leicester,0.0,0.0
16/05/15,Tottenham,Hull,2.0,0.0
16/05/15,West Ham,Everton,1.0,2.0
17/05/15,Man United,Arsenal,1.0,1.0
17/05/15,Swansea,Man City,2.0,4.0
18/05/15,West Brom,Chelsea,3.0,0.0
20/05/15,Arsenal,Sunderland,0.0,0.0
24/05/15,Arsenal,West Brom,4.0,1.0
24/05/15,Aston Villa,Burnley,0.0,1.0
24/05/15,Chelsea,Sunderland,3.0,1.0
24/05/15,Crystal Palace,Swansea,1.0,0.0
24/05/15,Everton,Tottenham,0.0,1.0
24/05/15,Hull,Man United,0.0,0.0
24/05/15,Leicester,QPR,5.0,1.0
24/05/15,Man City,Southampton,2.0,0.0
24/05/15,Newcastle,West Ham,2.0,0.0
24/05/15,Stoke,Liverpool,6.0,1.0
,,,,
08/08/15,Bournemouth,Aston Villa,0.0,1.0
08/08/15,Chelsea,Swansea,2.0,2.0
08/08/15,Everton,Watford,2.0,2.0
08/08/15,Leicester,Sunderland,4.0,2.0
08/08/15,Man United,Tottenham,1.0,0.0
08/08/15,Norwich,Crystal Palace,1.0,3.0
09/08/15,Arsenal,West Ham,0.0,2.0
09/08/15,Newcastle,Southampton,2.0,2.0
09/08/15,Stoke,Liverpool,0.0,1.0
10/08/15,West Brom,Man City,0.0,3.0
14/08/15,Aston Villa,Man United,0.0,1.0
15/08/15,Southampton,Everton,0.0,3.0
15/08/15,Sunderland,Norwich,1.0,3.0
15/08/15,Swansea,Newcastle,2.0,0.0
15/08/15,Tottenham,Stoke,2.0,2.0
15/08/15,Watford,West Brom,0.0,0.0
15/08/15,West Ham,Leicester,1.0,2.0
16/08/15,Crystal Palace,Arsenal,1.0,2.0
16/08/15,Man City,Chelsea,3.0,0.0
17/08/15,Liverpool,Bournemouth,1.0,0.0
22/08/15,Crystal Palace,Aston Villa,2.0,1.0
22/08/15,Leicester,Tottenham,1.0,1.0
22/08/15,Man United,Newcastle,0.0,0.0
22/08/15,Norwich,Stoke,1.0,1.0
22/08/15,Sunderland,Swansea,1.0,1.0
22/08/15,West Ham,Bournemouth,3.0,4.0
23/08/15,Everton,Man City,0.0,2.0
23/08/15,Watford,Southampton,0.0,0.0
23/08/15,West Brom,Chelsea,2.0,3.0
24/08/15,Arsenal,Liverpool,0.0,0.0
29/08/15,Aston Villa,Sunderland,2.0,2.0
29/08/15,Bournemouth,Leicester,1.0,1.0
29/08/15,Chelsea,Crystal Palace,1.0,2.0
29/08/15,Liverpool,West Ham,0.0,3.0
29/08/15,Man City,Watford,2.0,0.0
29/08/15,Newcastle,Arsenal,0.0,1.0
29/08/15,Stoke,West Brom,0.0,1.0
29/08/15,Tottenham,Everton,0.0,0.0
30/08/15,Southampton,Norwich,3.0,0.0
30/08/15,Swansea,Man United,2.0,1.0
12/09/15,Arsenal,Stoke,2.0,0.0
12/09/15,Crystal Palace,Man City,0.0,1.0
12/09/15,Everton,Chelsea,3.0,1.0
12/09/15,Man United,Liverpool,3.0,1.0
12/09/15,Norwich,Bournemouth,3.0,1.0
12/09/15,Watford,Swansea,1.0,0.0
12/09/15,West Brom,Southampton,0.0,0.0
13/09/15,Leicester,Aston Villa,3.0,2.0
13/09/15,Sunderland,Tottenham,0.0,1.0
14/09/15,West Ham,Newcastle,2.0,0.0
19/09/15,Aston Villa,West Brom,0.0,1.0
19/09/15,Bournemouth,Sunderland,2.0,0.0
19/09/15,Chelsea,Arsenal,2.0,0.0
19/09/15,Man City,West Ham,1.0,2.0
19/09/15,Newcastle,Watford,1.0,2.0
19/09/15,Stoke,Leicester,2.0,2.0
19/09/15,Swansea,Everton,0.0,0.0
20/09/15,Liverpool,Norwich,1.0,1.0
20/09/15,Southampton,Man United,2.0,3.0
20/09/15,Tottenham,Crystal Palace,1.0,0.0
26/09/15,Leicester,Arsenal,2.0,5.0
26/09/15,Liverpool,Aston Villa,3.0,2.0
26/09/15,Man United,Sunderland,3.0,0.0
26/09/15,Newcastle,Chelsea,2.0,2.0
26/09/15,Southampton,Swansea,3.0,1.0
26/09/15,Stoke,Bournemouth,2.0,1.0
26/09/15,Tottenham,Man City,4.0,1.0
26/09/15,West Ham,Norwich,2.0,2.0
27/09/15,Watford,Crystal Palace,0.0,1.0
28/09/15,West Brom,Everton,2.0,3.0
03/10/15,Aston Villa,Stoke,0.0,1.0
03/10/15,Bournemouth,Watford,1.0,1.0
03/10/15,Chelsea,Southampton,1.0,3.0
03/10/15,Crystal Palace,West Brom,2.0,0.0
03/10/15,Man City,Newcastle,6.0,1.0
03/10/15,Norwich,Leicester,1.0,2.0
03/10/15,Sunderland,West Ham,2.0,2.0
04/10/15,Arsenal,Man United,3.0,0.0
04/10/15,Everton,Liverpool,1.0,1.0
04/10/15,Swansea,Tottenham,2.0,2.0
17/10/15,Chelsea,Aston Villa,2.0,0.0
17/10/15,Crystal Palace,West Ham,1.0,3.0
17/10/15,Everton,Man United,0.0,3.0
17/10/15,Man City,Bournemouth,5.0,1.0
17/10/15,Southampton,Leicester,2.0,2.0
17/10/15,Tottenham,Liverpool,0.0,0.0
17/10/15,Watford,Arsenal,0.0,3.0
17/10/15,West Brom,Sunderland,1.0,0.0
18/10/15,Newcastle,Norwich,6.0,2.0
19/10/15,Swansea,Stoke,0.0,1.0
24/10/15,Arsenal,Everton,2.0,1.0
24/10/15,Aston Villa,Swansea,1.0,2.0
24/10/15,Leicester,Crystal Palace,1.0,0.0
24/10/15,Norwich,West Brom,0.0,1.0
24/10/15,Stoke,Watford,0.0,2.0
24/10/15,West Ham,Chelsea,2.0,1.0
25/10/15,Bournemouth,Tottenham,1.0,5.0
25/10/15,Liverpool,Southampton,1.0,1.0
25/10/15,Man United,Man City,0.0,0.0
25/10/15,Sunderland,Newcastle,3.0,0.0
31/10/15,Chelsea,Liverpool,1.0,3.0
31/10/15,Crystal Palace,Man United,0.0,0.0
31/10/15,Man City,Norwich,2.0,1.0
31/10/15,Newcastle,Stoke,0.0,0.0
31/10/15,Swansea,Arsenal,0.0,3.0
31/10/15,Watford,West Ham,2.0,0.0
31/10/15,West Brom,Leicester,2.0,3.0
01/11/15,Everton,Sunderland,6.0,2.0
01/11/15,Southampton,Bournemouth,2.0,0.0
02/11/15,Tottenham,Aston Villa,3.0,1.0
07/11/15,Bournemouth,Newcastle,0.0,1.0
07/11/15,Leicester,Watford,2.0,1.0
07/11/15,Man United,West Brom,2.0,0.0
07/11/15,Norwich,Swansea,1.0,0.0
07/11/15,Stoke,Chelsea,1.0,0.0
07/11/15,Sunderland,Southampton,0.0,1.0
07/11/15,West Ham,Everton,1.0,1.0
08/11/15,Arsenal,Tottenham,1.0,1.0
08/11/15,Aston Villa,Man City,0.0,0.0
08/11/15,Liverpool,Crystal Palace,1.0,2.0
21/11/15,Chelsea,Norwich,1.0,0.0
21/11/15,Everton,Aston Villa,4.0,0.0
21/11/15,Man City,Liverpool,1.0,4.0
21/11/15,Newcastle,Leicester,0.0,3.0
21/11/15,Southampton,Stoke,0.0,1.0
21/11/15,Swansea,Bournemouth,2.0,2.0
21/11/15,Watford,Man United,1.0,2.0
21/11/15,West Brom,Arsenal,2.0,1.0
22/11/15,Tottenham,West Ham,4.0,1.0
23/11/15,Crystal Palace,Sunderland,0.0,1.0
28/11/15,Aston Villa,Watford,2.0,3.0
28/11/15,Bournemouth,Everton,3.0,3.0
28/11/15,Crystal Palace,Newcastle,5.0,1.0
28/11/15,Leicester,Man United,1.0,1.0
28/11/15,Man City,Southampton,3.0,1.0
28/11/15,Sunderland,Stoke,2.0,0.0
29/11/15,Liverpool,Swansea,1.0,0.0
29/11/15,Norwich,Arsenal,1.0,1.0
29/11/15,Tottenham,Chelsea,0.0,0.0
29/11/15,West Ham,West Brom,1.0,1.0
05/12/15,Arsenal,Sunderland,3.0,1.0
05/12/15,Chelsea,Bournemouth,0.0,1.0
05/12/15,Man United,West Ham,0.0,0.0
05/12/15,Southampton,Aston Villa,1.0,1.0
05/12/15,Stoke,Man City,2.0,0.0
05/12/15,Swansea,Leicester,0.0,3.0
05/12/15,Watford,Norwich,2.0,0.0
05/12/15,West Brom,Tottenham,1.0,1.0
06/12/15,Newcastle,Liverpool,2.0,0.0
07/12/15,Everton,Crystal Palace,1.0,1.0
12/12/15,Bournemouth,Man United,2.0,1.0
12/12/15,Crystal Palace,Southampton,1.0,0.0
12/12/15,Man City,Swansea,2.0,1.0
12/12/15,Norwich,Everton,1.0,1.0
12/12/15,Sunderland,Watford,0.0,1.0
12/12/15,West Ham,Stoke,0.0,0.0
13/12/15,Aston Villa,Arsenal,0.0,2.0
13/12/15,Liverpool,West Brom,2.0,2.0
13/12/15,Tottenham,Newcastle,1.0,2.0
14/12/15,Leicester,Chelsea,2.0,1.0
19/12/15,Chelsea,Sunderland,3.0,1.0
19/12/15,Everton,Leicester,2.0,3.0
19/12/15,Man United,Norwich,1.0,2.0
19/12/15,Newcastle,Aston Villa,1.0,1.0
19/12/15,Southampton,Tottenham,0.0,2.0
19/12/15,Stoke,Crystal Palace,1.0,2.0
19/12/15,West Brom,Bournemouth,1.0,2.0
20/12/15,Swansea,West Ham,0.0,0.0
20/12/15,Watford,Liverpool,3.0,0.0
21/12/15,Arsenal,Man City,2.0,1.0
26/12/15,Aston Villa,West Ham,1.0,1.0
26/12/15,Bournemouth,Crystal Palace,0.0,0.0
26/12/15,Chelsea,Watford,2.0,2.0
26/12/15,Liverpool,Leicester,1.0,0.0
26/12/15,Man City,Sunderland,4.0,1.0
26/12/15,Newcastle,Everton,0.0,1.0
26/12/15,Southampton,Arsenal,4.0,0.0
26/12/15,Stoke,Man United,2.0,0.0
26/12/15,Swansea,West Brom,1.0,0.0
26/12/15,Tottenham,Norwich,3.0,0.0
28/12/15,Arsenal,Bournemouth,2.0,0.0
28/12/15,Crystal Palace,Swansea,0.0,0.0
28/12/15,Everton,Stoke,3.0,4.0
28/12/15,Man United,Chelsea,0.0,0.0
28/12/15,Norwich,Aston Villa,2.0,0.0
28/12/15,Watford,Tottenham,1.0,2.0
28/12/15,West Brom,Newcastle,1.0,0.0
28/12/15,West Ham,Southampton,2.0,1.0
29/12/15,Leicester,Man City,0.0,0.0
30/12/15,Sunderland,Liverpool,0.0,1.0
02/01/16,Arsenal,Newcastle,1.0,0.0
02/01/16,Leicester,Bournemouth,0.0,0.0
02/01/16,Man United,Swansea,2.0,1.0
02/01/16,Norwich,Southampton,1.0,0.0
02/01/16,Sunderland,Aston Villa,3.0,1.0
02/01/16,Watford,Man City,1.0,2.0
02/01/16,West Brom,Stoke,2.0,1.0
02/01/16,West Ham,Liverpool,2.0,0.0
03/01/16,Crystal Palace,Chelsea,0.0,3.0
03/01/16,Everton,Tottenham,1.0,1.0
12/01/16,Aston Villa,Crystal Palace,1.0,0.0
12/01/16,Bournemouth,West Ham,1.0,3.0
12/01/16,Newcastle,Man United,3.0,3.0
13/01/16,Chelsea,West Brom,2.0,2.0
13/01/16,Liverpool,Arsenal,3.0,3.0
13/01/16,Man City,Everton,0.0,0.0
13/01/16,Southampton,Watford,2.0,0.0
13/01/16,Stoke,Norwich,3.0,1.0
13/01/16,Swansea,Sunderland,2.0,4.0
13/01/16,Tottenham,Leicester,0.0,1.0
16/01/16,Aston Villa,Leicester,1.0,1.0
16/01/16,Bournemouth,Norwich,3.0,0.0
16/01/16,Chelsea,Everton,3.0,3.0
16/01/16,Man City,Crystal Palace,4.0,0.0
16/01/16,Newcastle,West Ham,2.0,1.0
16/01/16,Southampton,West Brom,3.0,0.0
16/01/16,Tottenham,Sunderland,4.0,1.0
17/01/16,Liverpool,Man United,0.0,1.0
17/01/16,Stoke,Arsenal,0.0,0.0
18/01/16,Swansea,Watford,1.0,0.0
23/01/16,Crystal Palace,Tottenham,1.0,3.0
23/01/16,Leicester,Stoke,3.0,0.0
23/01/16,Man United,Southampton,0.0,1.0
23/01/16,Norwich,Liverpool,4.0,5.0
23/01/16,Sunderland,Bournemouth,1.0,1.0
23/01/16,Watford,Newcastle,2.0,1.0
23/01/16,West Brom,Aston Villa,0.0,0.0
23/01/16,West Ham,Man City,2.0,2.0
24/01/16,Arsenal,Chelsea,0.0,1.0
24/01/16,Everton,Swansea,1.0,2.0
02/02/16,Arsenal,Southampton,0.0,0.0
02/02/16,Crystal Palace,Bournemouth,1.0,2.0
02/02/16,Leicester,Liverpool,2.0,0.0
02/02/16,Man United,Stoke,3.0,0.0
02/02/16,Norwich,Tottenham,0.0,3.0
02/02/16,Sunderland,Man City,0.0,1.0
02/02/16,West Brom,Swansea,1.0,1.0
02/02/16,West Ham,Aston Villa,2.0,0.0
03/02/16,Everton,Newcastle,3.0,0.0
03/02/16,Watford,Chelsea,0.0,0.0
06/02/16,Aston Villa,Norwich,2.0,0.0
06/02/16,Liverpool,Sunderland,2.0,2.0
06/02/16,Man City,Leicester,1.0,3.0
06/02/16,Newcastle,West Brom,1.0,0.0
06/02/16,Southampton,West Ham,1.0,0.0
06/02/16,Stoke,Everton,0.0,3.0
06/02/16,Swansea,Crystal Palace,1.0,1.0
06/02/16,Tottenham,Watford,1.0,0.0
07/02/16,Bournemouth,Arsenal,0.0,2.0
07/02/16,Chelsea,Man United,1.0,1.0
13/02/16,Bournemouth,Stoke,1.0,3.0
13/02/16,Chelsea,Newcastle,5.0,1.0
13/02/16,Crystal Palace,Watford,1.0,2.0
13/02/16,Everton,West Brom,0.0,1.0
13/02/16,Norwich,West Ham,2.0,2.0
13/02/16,Sunderland,Man United,2.0,1.0
13/02/16,Swansea,Southampton,0.0,1.0
14/02/16,Arsenal,Leicester,2.0,1.0
14/02/16,Aston Villa,Liverpool,0.0,6.0
14/02/16,Man City,Tottenham,1.0,2.0
27/02/16,Leicester,Norwich,1.0,0.0
27/02/16,Southampton,Chelsea,1.0,2.0
27/02/16,Stoke,Aston Villa,2.0,1.0
27/02/16,Watford,Bournemouth,0.0,0.0
27/02/16,West Brom,Crystal Palace,3.0,2.0
27/02/16,West Ham,Sunderland,1.0,0.0
28/02/16,Tottenham,Swansea,2.0,1.0
28/02/16,Man United,Arsenal,3.0,2.0
01/03/16,Aston Villa,Everton,1.0,3.0
01/03/16,Bournemouth,Southampton,2.0,0.0
01/03/16,Leicester,West Brom,2.0,2.0
01/03/16,Norwich,Chelsea,1.0,2.0
01/03/16,Sunderland,Crystal Palace,2.0,2.0
02/03/16,Arsenal,Swansea,1.0,2.0
02/03/16,Liverpool,Man City,3.0,0.0
02/03/16,Man United,Watford,1.0,0.0
02/03/16,Stoke,Newcastle,1.0,0.0
02/03/16,West Ham,Tottenham,1.0,0.0
05/03/16,Chelsea,Stoke,1.0,1.0
05/03/16,Everton,West Ham,2.0,3.0
05/03/16,Man City,Aston Villa,4.0,0.0
05/03/16,Newcastle,Bournemouth,1.0,3.0
05/03/16,Southampton,Sunderland,1.0,1.0
05/03/16,Swansea,Norwich,1.0,0.0
05/03/16,Tottenham,Arsenal,2.0,2.0
05/03/16,Watford,Leicester,0.0,1.0
06/03/16,Crystal Palace,Liverpool,1.0,2.0
06/03/16,West Brom,Man United,1.0,0.0
12/03/16,Bournemouth,Swansea,3.0,2.0
12/03/16,Norwich,Man City,0.0,0.0
12/03/16,Stoke,Southampton,1.0,2.0
13/03/16,Aston Villa,Tottenham,0.0,2.0
14/03/16,Leicester,Newcastle,1.0,0.0
19/03/16,Chelsea,West Ham,2.0,2.0
19/03/16,Crystal Palace,Leicester,0.0,1.0
19/03/16,Everton,Arsenal,0.0,2.0
19/03/16,Swansea,Aston Villa,1.0,0.0
19/03/16,Watford,Stoke,1.0,2.0
19/03/16,West Brom,Norwich,0.0,1.0
20/03/16,Man City,Man United,0.0,1.0
20/03/16,Newcastle,Sunderland,1.0,1.0
20/03/16,Southampton,Liverpool,3.0,2.0
20/03/16,Tottenham,Bournemouth,3.0,0.0
02/04/16,Arsenal,Watford,4.0,0.0
02/04/16,Aston Villa,Chelsea,0.0,4.0
02/04/16,Bournemouth,Man City,0.0,4.0
02/04/16,Liverpool,Tottenham,1.0,1.0
02/04/16,Norwich,Newcastle,3.0,2.0
02/04/16,Stoke,Swansea,2.0,2.0
02/04/16,Sunderland,West Brom,0.0,0.0
02/04/16,West Ham,Crystal Palace,2.0,2.0
03/04/16,Leicester,Southampton,1.0,0.0
03/04/16,Man United,Everton,1.0,0.0
09/04/16,Aston Villa,Bournemouth,1.0,2.0
09/04/16,Crystal Palace,Norwich,1.0,0.0
09/04/16,Man City,West Brom,2.0,1.0
09/04/16,Southampton,Newcastle,3.0,1.0
09/04/16,Swansea,Chelsea,1.0,0.0
09/04/16,Watford,Everton,1.0,1.0
09/04/16,West Ham,Arsenal,3.0,3.0
10/04/16,Liverpool,Stoke,4.0,1.0
10/04/16,Sunderland,Leicester,0.0,2.0
10/04/16,Tottenham,Man United,3.0,0.0
13/04/16,Crystal Palace,Everton,0.0,0.0
16/04/16,Chelsea,Man City,0.0,3.0
16/04/16,Everton,Southampton,1.0,1.0
16/04/16,Man United,Aston Villa,1.0,0.0
16/04/16,Newcastle,Swansea,3.0,0.0
16/04/16,Norwich,Sunderland,0.0,3.0
16/04/16,West Brom,Watford,0.0,1.0
17/04/16,Arsenal,Crystal Palace,1.0,1.0
17/04/16,Bournemouth,Liverpool,1.0,2.0
17/04/16,Leicester,West Ham,2.0,2.0
18/04/16,Stoke,Tottenham,0.0,4.0
19/04/16,Newcastle,Man City,1.0,1.0
20/04/16,Liverpool,Everton,4.0,0.0
20/04/16,Man United,Crystal Palace,2.0,0.0
20/04/16,West Ham,Watford,3.0,1.0
21/04/16,Arsenal,West Brom,2.0,0.0
23/04/16,Aston Villa,Southampton,2.0,4.0
23/04/16,Bournemouth,Chelsea,1.0,4.0
23/04/16,Liverpool,Newcastle,2.0,2.0
23/04/16,Man City,Stoke,4.0,0.0
24/04/16,Leicester,Swansea,4.0,0.0
24/04/16,Sunderland,Arsenal,0.0,0.0
25/04/16,Tottenham,West Brom,1.0,1.0
30/04/16,Arsenal,Norwich,1.0,0.0
30/04/16,Everton,Bournemouth,2.0,1.0
30/04/16,Newcastle,Crystal Palace,1.0,0.0
30/04/16,Stoke,Sunderland,1.0,1.0
30/04/16,Watford,Aston Villa,3.0,2.0
30/04/16,West Brom,West Ham,0.0,3.0
01/05/16,Man United,Leicester,1.0,1.0
01/05/16,Southampton,Man City,4.0,2.0
01/05/16,Swansea,Liverpool,3.0,1.0
02/05/16,Chelsea,Tottenham,2.0,2.0
07/05/16,Aston Villa,Newcastle,0.0,0.0
07/05/16,Bournemouth,West Brom,1.0,1.0
07/05/16,Crystal Palace,Stoke,2.0,1.0
07/05/16,Leicester,Everton,3.0,1.0
07/05/16,Norwich,Man United,0.0,1.0
07/05/16,Sunderland,Chelsea,3.0,2.0
07/05/16,West Ham,Swansea,1.0,4.0
08/05/16,Liverpool,Watford,2.0,0.0
08/05/16,Man City,Arsenal,2.0,2.0
08/05/16,Tottenham,Southampton,1.0,2.0
10/05/16,West Ham,Man United,3.0,2.0
11/05/16,Liverpool,Chelsea,1.0,1.0
11/05/16,Norwich,Watford,4.0,2.0
11/05/16,Sunderland,Everton,3.0,0.0
15/05/16,Arsenal,Aston Villa,4.0,0.0
15/05/16,Chelsea,Leicester,1.0,1.0
15/05/16,Everton,Norwich,3.0,0.0
15/05/16,Newcastle,Tottenham,5.0,1.0
15/05/16,Southampton,Crystal Palace,4.0,1.0
15/05/16,Stoke,West Ham,2.0,1.0
15/05/16,Swansea,Man City,1.0,1.0
15/05/16,Watford,Sunderland,2.0,2.0
15/05/16,West Brom,Liverpool,1.0,1.0
17/05/16,Man United,Bournemouth,3.0,1.0
13/08/16,Burnley,Swansea,0.0,1.0
13/08/16,Crystal Palace,West Brom,0.0,1.0
13/08/16,Everton,Tottenham,1.0,1.0
13/08/16,Hull,Leicester,2.0,1.0
13/08/16,Man City,Sunderland,2.0,1.0
13/08/16,Middlesbrough,Stoke,1.0,1.0
13/08/16,Southampton,Watford,1.0,1.0
14/08/16,Arsenal,Liverpool,3.0,4.0
14/08/16,Bournemouth,Man United,1.0,3.0
15/08/16,Chelsea,West Ham,2.0,1.0
19/08/16,Man United,Southampton,2.0,0.0
20/08/16,Burnley,Liverpool,2.0,0.0
20/08/16,Leicester,Arsenal,0.0,0.0
20/08/16,Stoke,Man City,1.0,4.0
20/08/16,Swansea,Hull,0.0,2.0
20/08/16,Tottenham,Crystal Palace,1.0,0.0
20/08/16,Watford,Chelsea,1.0,2.0
20/08/16,West Brom,Everton,1.0,2.0
21/08/16,Sunderland,Middlesbrough,1.0,2.0
21/08/16,West Ham,Bournemouth,1.0,0.0
27/08/16,Chelsea,Burnley,3.0,0.0
27/08/16,Crystal Palace,Bournemouth,1.0,1.0
27/08/16,Everton,Stoke,1.0,0.0
27/08/16,Hull,Man United,0.0,1.0
27/08/16,Leicester,Swansea,2.0,1.0
27/08/16,Southampton,Sunderland,1.0,1.0
27/08/16,Tottenham,Liverpool,1.0,1.0
27/08/16,Watford,Arsenal,1.0,3.0
28/08/16,Man City,West Ham,3.0,1.0
28/08/16,West Brom,Middlesbrough,0.0,0.0
10/09/16,Arsenal,Southampton,2.0,1.0
10/09/16,Bournemouth,West Brom,1.0,0.0
10/09/16,Burnley,Hull,1.0,1.0
10/09/16,Liverpool,Leicester,4.0,1.0
10/09/16,Man United,Man City,1.0,2.0
10/09/16,Middlesbrough,Crystal Palace,1.0,2.0
10/09/16,Stoke,Tottenham,0.0,4.0
10/09/16,West Ham,Watford,2.0,4.0
11/09/16,Swansea,Chelsea,2.0,2.0
12/09/16,Sunderland,Everton,0.0,3.0
16/09/16,Chelsea,Liverpool,1.0,2.0
17/09/16,Everton,Middlesbrough,3.0,1.0
17/09/16,Hull,Arsenal,1.0,4.0
17/09/16,Leicester,Burnley,3.0,0.0
17/09/16,Man City,Bournemouth,4.0,0.0
17/09/16,West Brom,West Ham,4.0,2.0
18/09/16,Crystal Palace,Stoke,4.0,1.0
18/09/16,Southampton,Swansea,1.0,0.0
18/09/16,Tottenham,Sunderland,1.0,0.0
18/09/16,Watford,Man United,3.0,1.0
24/09/16,Arsenal,Chelsea,3.0,0.0
24/09/16,Bournemouth,Everton,1.0,0.0
24/09/16,Liverpool,Hull,5.0,1.0
24/09/16,Man United,Leicester,4.0,1.0
24/09/16,Middlesbrough,Tottenham,1.0,2.0
24/09/16,Stoke,West Brom,1.0,1.0
24/09/16,Sunderland,Crystal Palace,2.0,3.0
24/09/16,Swansea,Man City,1.0,3.0
25/09/16,West Ham,Southampton,0.0,3.0
26/09/16,Burnley,Watford,2.0,0.0
30/09/16,Everton,Crystal Palace,1.0,1.0
01/10/16,Hull,Chelsea,0.0,2.0
01/10/16,Sunderland,West Brom,1.0,1.0
01/10/16,Swansea,Liverpool,1.0,2.0
01/10/16,Watford,Bournemouth,2.0,2.0
01/10/16,West Ham,Middlesbrough,1.0,1.0
02/10/16,Burnley,Arsenal,0.0,1.0
02/10/16,Leicester,Southampton,0.0,0.0
02/10/16,Man United,Stoke,1.0,1.0
02/10/16,Tottenham,Man City,2.0,0.0
15/10/16,Arsenal,Swansea,3.0,2.0
15/10/16,Bournemouth,Hull,6.0,1.0
15/10/16,Chelsea,Leicester,3.0,0.0
15/10/16,Crystal Palace,West Ham,0.0,1.0
15/10/16,Man City,Everton,1.0,1.0
15/10/16,Stoke,Sunderland,2.0,0.0
15/10/16,West Brom,Tottenham,1.0,1.0
16/10/16,Middlesbrough,Watford,0.0,1.0
16/10/16,Southampton,Burnley,3.0,1.0
17/10/16,Liverpool,Man United,0.0,0.0
22/10/16,Arsenal,Middlesbrough,0.0,0.0
22/10/16,Bournemouth,Tottenham,0.0,0.0
22/10/16,Burnley,Everton,2.0,1.0
22/10/16,Hull,Stoke,0.0,2.0
22/10/16,Leicester,Crystal Palace,3.0,1.0
22/10/16,Liverpool,West Brom,2.0,1.0
22/10/16,Swansea,Watford,0.0,0.0
22/10/16,West Ham,Sunderland,1.0,0.0
23/10/16,Chelsea,Man United,4.0,0.0
23/10/16,Man City,Southampton,1.0,1.0
29/10/16,Crystal Palace,Liverpool,2.0,4.0
29/10/16,Man United,Burnley,0.0,0.0
29/10/16,Middlesbrough,Bournemouth,2.0,0.0
29/10/16,Sunderland,Arsenal,1.0,4.0
29/10/16,Tottenham,Leicester,1.0,1.0
29/10/16,Watford,Hull,1.0,0.0
29/10/16,West Brom,Man City,0.0,4.0
30/10/16,Everton,West Ham,2.0,0.0
30/10/16,Southampton,Chelsea,0.0,2.0
31/10/16,Stoke,Swansea,3.0,1.0
05/11/16,Bournemouth,Sunderland,1.0,2.0
05/11/16,Burnley,Crystal Palace,3.0,2.0
05/11/16,Chelsea,Everton,5.0,0.0
05/11/16,Man City,Middlesbrough,1.0,1.0
05/11/16,West Ham,Stoke,1.0,1.0
06/11/16,Arsenal,Tottenham,1.0,1.0
06/11/16,Hull,Southampton,2.0,1.0
06/11/16,Leicester,West Brom,1.0,2.0
06/11/16,Liverpool,Watford,6.0,1.0
06/11/16,Swansea,Man United,1.0,3.0
19/11/16,Crystal Palace,Man City,1.0,2.0
19/11/16,Everton,Swansea,1.0,1.0
19/11/16,Man United,Arsenal,1.0,1.0
19/11/16,Southampton,Liverpool,0.0,0.0
19/11/16,Stoke,Bournemouth,0.0,1.0
19/11/16,Sunderland,Hull,3.0,0.0
19/11/16,Tottenham,West Ham,3.0,2.0
19/11/16,Watford,Leicester,2.0,1.0
20/11/16,Middlesbrough,Chelsea,0.0,1.0
21/11/16,West Brom,Burnley,4.0,0.0
26/11/16,Burnley,Man City,1.0,2.0
26/11/16,Chelsea,Tottenham,2.0,1.0
26/11/16,Hull,West Brom,1.0,1.0
26/11/16,Leicester,Middlesbrough,2.0,2.0
26/11/16,Liverpool,Sunderland,2.0,0.0
26/11/16,Swansea,Crystal Palace,5.0,4.0
27/11/16,Arsenal,Bournemouth,3.0,1.0
27/11/16,Man United,West Ham,1.0,1.0
27/11/16,Southampton,Everton,1.0,0.0
27/11/16,Watford,Stoke,0.0,1.0
03/12/16,Crystal Palace,Southampton,3.0,0.0
03/12/16,Man City,Chelsea,1.0,3.0
03/12/16,Stoke,Burnley,2.0,0.0
03/12/16,Sunderland,Leicester,2.0,1.0
03/12/16,Tottenham,Swansea,5.0,0.0
03/12/16,West Brom,Watford,3.0,1.0
03/12/16,West Ham,Arsenal,1.0,5.0
04/12/16,Bournemouth,Liverpool,4.0,3.0
04/12/16,Everton,Man United,1.0,1.0
05/12/16,Middlesbrough,Hull,1.0,0.0
10/12/16,Arsenal,Stoke,3.0,1.0
10/12/16,Burnley,Bournemouth,3.0,2.0
10/12/16,Hull,Crystal Palace,3.0,3.0
10/12/16,Leicester,Man City,4.0,2.0
10/12/16,Swansea,Sunderland,3.0,0.0
10/12/16,Watford,Everton,3.0,2.0
11/12/16,Chelsea,West Brom,1.0,0.0
11/12/16,Liverpool,West Ham,2.0,2.0
11/12/16,Man United,Tottenham,1.0,0.0
11/12/16,Southampton,Middlesbrough,1.0,0.0
13/12/16,Bournemouth,Leicester,1.0,0.0
13/12/16,Everton,Arsenal,2.0,1.0
14/12/16,Crystal Palace,Man United,1.0,2.0
14/12/16,Man City,Watford,2.0,0.0
14/12/16,Middlesbrough,Liverpool,0.0,3.0
14/12/16,Stoke,Southampton,0.0,0.0
14/12/16,Sunderland,Chelsea,0.0,1.0
14/12/16,Tottenham,Hull,3.0,0.0
14/12/16,West Brom,Swansea,3.0,1.0
14/12/16,West Ham,Burnley,1.0,0.0
17/12/16,Crystal Palace,Chelsea,0.0,1.0
17/12/16,Middlesbrough,Swansea,3.0,0.0
17/12/16,Stoke,Leicester,2.0,2.0
17/12/16,Sunderland,Watford,1.0,0.0
17/12/16,West Brom,Man United,0.0,2.0
17/12/16,West Ham,Hull,1.0,0.0
18/12/16,Bournemouth,Southampton,1.0,3.0
18/12/16,Man City,Arsenal,2.0,1.0
18/12/16,Tottenham,Burnley,2.0,1.0
19/12/16,Everton,Liverpool,0.0,1.0
26/12/16,Arsenal,West Brom,1.0,0.0
26/12/16,Burnley,Middlesbrough,1.0,0.0
26/12/16,Chelsea,Bournemouth,3.0,0.0
26/12/16,Hull,Man City,0.0,3.0
26/12/16,Leicester,Everton,0.0,2.0
26/12/16,Man United,Sunderland,3.0,1.0
26/12/16,Swansea,West Ham,1.0,4.0
26/12/16,Watford,Crystal Palace,1.0,1.0
27/12/16,Liverpool,Stoke,4.0,1.0
28/12/16,Southampton,Tottenham,1.0,4.0
30/12/16,Hull,Everton,2.0,2.0
31/12/16,Burnley,Sunderland,4.0,1.0
31/12/16,Chelsea,Stoke,4.0,2.0
31/12/16,Leicester,West Ham,1.0,0.0
31/12/16,Liverpool,Man City,1.0,0.0
31/12/16,Man United,Middlesbrough,2.0,1.0
31/12/16,Southampton,West Brom,1.0,2.0
31/12/16,Swansea,Bournemouth,0.0,3.0
01/01/17,Arsenal,Crystal Palace,2.0,0.0
01/01/17,Watford,Tottenham,1.0,4.0
02/01/17,Everton,Southampton,3.0,0.0
02/01/17,Man City,Burnley,2.0,1.0
02/01/17,Middlesbrough,Leicester,0.0,0.0
02/01/17,Sunderland,Liverpool,2.0,2.0
02/01/17,West Brom,Hull,3.0,1.0
02/01/17,West Ham,Man United,0.0,2.0
03/01/17,Bournemouth,Arsenal,3.0,3.0
03/01/17,Crystal Palace,Swansea,1.0,2.0
03/01/17,Stoke,Watford,2.0,0.0
04/01/17,Tottenham,Chelsea,2.0,0.0
14/01/17,Burnley,Southampton,1.0,0.0
14/01/17,Hull,Bournemouth,3.0,1.0
14/01/17,Leicester,Chelsea,0.0,3.0
14/01/17,Sunderland,Stoke,1.0,3.0
14/01/17,Swansea,Arsenal,0.0,4.0
14/01/17,Tottenham,West Brom,4.0,0.0
14/01/17,Watford,Middlesbrough,0.0,0.0
14/01/17,West Ham,Crystal Palace,3.0,0.0
15/01/17,Everton,Man City,4.0,0.0
15/01/17,Man United,Liverpool,1.0,1.0
21/01/17,Bournemouth,Watford,2.0,2.0
21/01/17,Crystal Palace,Everton,0.0,1.0
21/01/17,Liverpool,Swansea,2.0,3.0
21/01/17,Man City,Tottenham,2.0,2.0
21/01/17,Middlesbrough,West Ham,1.0,3.0
21/01/17,Stoke,Man United,1.0,1.0
21/01/17,West Brom,Sunderland,2.0,0.0
22/01/17,Arsenal,Burnley,2.0,1.0
22/01/17,Chelsea,Hull,2.0,0.0
22/01/17,Southampton,Leicester,3.0,0.0
31/01/17,Arsenal,Watford,1.0,2.0
31/01/17,Bournemouth,Crystal Palace,0.0,2.0
31/01/17,Burnley,Leicester,1.0,0.0
31/01/17,Liverpool,Chelsea,1.0,1.0
31/01/17,Middlesbrough,West Brom,1.0,1.0
31/01/17,Sunderland,Tottenham,0.0,0.0
31/01/17,Swansea,Southampton,2.0,1.0
01/02/17,Man United,Hull,0.0,0.0
01/02/17,Stoke,Everton,1.0,1.0
01/02/17,West Ham,Man City,0.0,4.0
04/02/17,Chelsea,Arsenal,3.0,1.0
04/02/17,Crystal Palace,Sunderland,0.0,4.0
04/02/17,Everton,Bournemouth,6.0,3.0
04/02/17,Hull,Liverpool,2.0,0.0
04/02/17,Southampton,West Ham,1.0,3.0
04/02/17,Tottenham,Middlesbrough,1.0,0.0
04/02/17,Watford,Burnley,2.0,1.0
04/02/17,West Brom,Stoke,1.0,0.0
05/02/17,Leicester,Man United,0.0,3.0
05/02/17,Man City,Swansea,2.0,1.0
11/02/17,Arsenal,Hull,2.0,0.0
11/02/17,Liverpool,Tottenham,2.0,0.0
11/02/17,Man United,Watford,2.0,0.0
11/02/17,Middlesbrough,Everton,0.0,0.0
11/02/17,Stoke,Crystal Palace,1.0,0.0
11/02/17,Sunderland,Southampton,0.0,4.0
11/02/17,West Ham,West Brom,2.0,2.0
12/02/17,Burnley,Chelsea,1.0,1.0
12/02/17,Swansea,Leicester,2.0,0.0
13/02/17,Bournemouth,Man City,0.0,2.0
25/02/17,Chelsea,Swansea,3.0,1.0
25/02/17,Crystal Palace,Middlesbrough,1.0,0.0
25/02/17,Everton,Sunderland,2.0,0.0
25/02/17,Hull,Burnley,1.0,1.0
25/02/17,Watford,West Ham,1.0,1.0
25/02/17,West Brom,Bournemouth,2.0,1.0
26/02/17,Tottenham,Stoke,4.0,0.0
27/02/17,Leicester,Liverpool,3.0,1.0
04/03/17,Leicester,Hull,3.0,1.0
04/03/17,Liverpool,Arsenal,3.0,1.0
04/03/17,Man United,Bournemouth,1.0,1.0
04/03/17,Stoke,Middlesbrough,2.0,0.0
04/03/17,Swansea,Burnley,3.0,2.0
04/03/17,Watford,Southampton,3.0,4.0
04/03/17,West Brom,Crystal Palace,0.0,2.0
05/03/17,Sunderland,Man City,0.0,2.0
05/03/17,Tottenham,Everton,3.0,2.0
06/03/17,West Ham,Chelsea,1.0,2.0
08/03/17,Man City,Stoke,0.0,0.0
11/03/17,Bournemouth,West Ham,3.0,2.0
11/03/17,Everton,West Brom,3.0,0.0
11/03/17,Hull,Swansea,2.0,1.0
12/03/17,Liverpool,Burnley,2.0,1.0
18/03/17,Bournemouth,Swansea,2.0,0.0
18/03/17,Crystal Palace,Watford,1.0,0.0
18/03/17,Everton,Hull,4.0,0.0
18/03/17,Stoke,Chelsea,1.0,2.0
18/03/17,Sunderland,Burnley,0.0,0.0
18/03/17,West Brom,Arsenal,3.0,1.0
18/03/17,West Ham,Leicester,2.0,3.0
19/03/17,Man City,Liverpool,1.0,1.0
19/03/17,Middlesbrough,Man United,1.0,3.0
19/03/17,Tottenham,Southampton,2.0,1.0
01/04/17,Burnley,Tottenham,0.0,2.0
01/04/17,Chelsea,Crystal Palace,1.0,2.0
01/04/17,Hull,West Ham,2.0,1.0
01/04/17,Leicester,Stoke,2.0,0.0
01/04/17,Liverpool,Everton,3.0,1.0
01/04/17,Man United,West Brom,0.0,0.0
01/04/17,Southampton,Bournemouth,0.0,0.0
01/04/17,Watford,Sunderland,1.0,0.0
02/04/17,Arsenal,Man City,2.0,2.0
02/04/17,Swansea,Middlesbrough,0.0,0.0
04/04/17,Burnley,Stoke,1.0,0.0
04/04/17,Leicester,Sunderland,2.0,0.0
04/04/17,Man United,Everton,1.0,1.0
04/04/17,Watford,West Brom,2.0,0.0
05/04/17,Arsenal,West Ham,3.0,0.0
05/04/17,Chelsea,Man City,2.0,1.0
05/04/17,Hull,Middlesbrough,4.0,2.0
05/04/17,Liverpool,Bournemouth,2.0,2.0
05/04/17,Southampton,Crystal Palace,3.0,1.0
05/04/17,Swansea,Tottenham,1.0,3.0
08/04/17,Bournemouth,Chelsea,1.0,3.0
08/04/17,Man City,Hull,3.0,1.0
08/04/17,Middlesbrough,Burnley,0.0,0.0
08/04/17,Stoke,Liverpool,1.0,2.0
08/04/17,Tottenham,Watford,4.0,0.0
08/04/17,West Brom,Southampton,0.0,1.0
08/04/17,West Ham,Swansea,1.0,0.0
09/04/17,Everton,Leicester,4.0,2.0
09/04/17,Sunderland,Man United,0.0,3.0
10/04/17,Crystal Palace,Arsenal,3.0,0.0
15/04/17,Crystal Palace,Leicester,2.0,2.0
15/04/17,Everton,Burnley,3.0,1.0
15/04/17,Southampton,Man City,0.0,3.0
15/04/17,Stoke,Hull,3.0,1.0
15/04/17,Sunderland,West Ham,2.0,2.0
15/04/17,Tottenham,Bournemouth,4.0,0.0
15/04/17,Watford,Swansea,1.0,0.0
16/04/17,Man United,Chelsea,2.0,0.0
16/04/17,West Brom,Liverpool,0.0,1.0
17/04/17,Middlesbrough,Arsenal,1.0,2.0
22/04/17,Bournemouth,Middlesbrough,4.0,0.0
22/04/17,Hull,Watford,2.0,0.0
22/04/17,Swansea,Stoke,2.0,0.0
22/04/17,West Ham,Everton,0.0,0.0
23/04/17,Burnley,Man United,0.0,2.0
23/04/17,Liverpool,Crystal Palace,1.0,2.0
25/04/17,Chelsea,Southampton,4.0,2.0
26/04/17,Arsenal,Leicester,1.0,0.0
26/04/17,Crystal Palace,Tottenham,0.0,1.0
26/04/17,Middlesbrough,Sunderland,1.0,0.0
27/04/17,Man City,Man United,0.0,0.0
29/04/17,Crystal Palace,Burnley,0.0,2.0
29/04/17,Southampton,Hull,0.0,0.0
29/04/17,Stoke,West Ham,0.0,0.0
29/04/17,Sunderland,Bournemouth,0.0,1.0
29/04/17,West Brom,Leicester,0.0,1.0
30/04/17,Everton,Chelsea,0.0,3.0
30/04/17,Man United,Swansea,1.0,1.0
30/04/17,Middlesbrough,Man City,2.0,2.0
30/04/17,Tottenham,Arsenal,2.0,0.0
01/05/17,Watford,Liverpool,0.0,1.0
05/05/17,West Ham,Tottenham,1.0,0.0
06/05/17,Bournemouth,Stoke,2.0,2.0
06/05/17,Burnley,West Brom,2.0,2.0
06/05/17,Hull,Sunderland,0.0,2.0
06/05/17,Leicester,Watford,3.0,0.0
06/05/17,Man City,Crystal Palace,5.0,0.0
06/05/17,Swansea,Everton,1.0,0.0
07/05/17,Arsenal,Man United,2.0,0.0
07/05/17,Liverpool,Southampton,0.0,0.0
08/05/17,Chelsea,Middlesbrough,3.0,0.0
10/05/17,Southampton,Arsenal,0.0,2.0
12/05/17,Everton,Watford,1.0,0.0
12/05/17,West Brom,Chelsea,0.0,1.0
13/05/17,Bournemouth,Burnley,2.0,1.0
13/05/17,Man City,Leicester,2.0,1.0
13/05/17,Middlesbrough,Southampton,1.0,2.0
13/05/17,Stoke,Arsenal,1.0,4.0
13/05/17,Sunderland,Swansea,0.0,2.0
14/05/17,Crystal Palace,Hull,4.0,0.0
14/05/17,Tottenham,Man United,2.0,1.0
14/05/17,West Ham,Liverpool,0.0,4.0
15/05/17,Chelsea,Watford,4.0,3.0
16/05/17,Arsenal,Sunderland,2.0,0.0
16/05/17,Man City,West Brom,3.0,1.0
17/05/17,Southampton,Man United,0.0,0.0
18/05/17,Leicester,Tottenham,1.0,6.0
21/05/17,Arsenal,Everton,3.0,1.0
21/05/17,Burnley,West Ham,1.0,2.0
21/05/17,Chelsea,Sunderland,5.0,1.0
21/05/17,Hull,Tottenham,1.0,7.0
21/05/17,Leicester,Bournemouth,1.0,1.0
21/05/17,Liverpool,Middlesbrough,3.0,0.0
21/05/17,Man United,Crystal Palace,2.0,0.0
21/05/17,Southampton,Stoke,0.0,1.0
21/05/17,Swansea,West Brom,2.0,1.0
21/05/17,Watford,Man City,0.0,5.0
11/08/2017,Arsenal,Leicester,4.0,3.0
12/08/2017,Brighton,Man City,0.0,2.0
12/08/2017,Chelsea,Burnley,2.0,3.0
12/08/2017,Crystal Palace,Huddersfield,0.0,3.0
12/08/2017,Everton,Stoke,1.0,0.0
12/08/2017,Southampton,Swansea,0.0,0.0
12/08/2017,Watford,Liverpool,3.0,3.0
12/08/2017,West Brom,Bournemouth,1.0,0.0
13/08/2017,Man United,West Ham,4.0,0.0
13/08/2017,Newcastle,Tottenham,0.0,2.0
19/08/2017,Bournemouth,Watford,0.0,2.0
19/08/2017,Burnley,West Brom,0.0,1.0
19/08/2017,Leicester,Brighton,2.0,0.0
19/08/2017,Liverpool,Crystal Palace,1.0,0.0
19/08/2017,Southampton,West Ham,3.0,2.0
19/08/2017,Stoke,Arsenal,1.0,0.0
19/08/2017,Swansea,Man United,0.0,4.0
20/08/2017,Huddersfield,Newcastle,1.0,0.0
20/08/2017,Tottenham,Chelsea,1.0,2.0
21/08/2017,Man City,Everton,1.0,1.0
26/08/2017,Bournemouth,Man City,1.0,2.0
26/08/2017,Crystal Palace,Swansea,0.0,2.0
26/08/2017,Huddersfield,Southampton,0.0,0.0
26/08/2017,Man United,Leicester,2.0,0.0
26/08/2017,Newcastle,West Ham,3.0,0.0
26/08/2017,Watford,Brighton,0.0,0.0
27/08/2017,Chelsea,Everton,2.0,0.0
27/08/2017,Liverpool,Arsenal,4.0,0.0
27/08/2017,Tottenham,Burnley,1.0,1.0
27/08/2017,West Brom,Stoke,1.0,1.0
09/09/2017,Arsenal,Bournemouth,3.0,0.0
09/09/2017,Brighton,West Brom,3.0,1.0
09/09/2017,Everton,Tottenham,0.0,3.0
09/09/2017,Leicester,Chelsea,1.0,2.0
09/09/2017,Man City,Liverpool,5.0,0.0
09/09/2017,Southampton,Watford,0.0,2.0
09/09/2017,Stoke,Man United,2.0,2.0
10/09/2017,Burnley,Crystal Palace,1.0,0.0
10/09/2017,Swansea,Newcastle,0.0,1.0
11/09/2017,West Ham,Huddersfield,2.0,0.0
15/09/2017,Bournemouth,Brighton,2.0,1.0
16/09/2017,Crystal Palace,Southampton,0.0,1.0
16/09/2017,Huddersfield,Leicester,1.0,1.0
16/09/2017,Liverpool,Burnley,1.0,1.0
16/09/2017,Newcastle,Stoke,2.0,1.0
16/09/2017,Tottenham,Swansea,0.0,0.0
16/09/2017,Watford,Man City,0.0,6.0
16/09/2017,West Brom,West Ham,0.0,0.0
17/09/2017,Chelsea,Arsenal,0.0,0.0
17/09/2017,Man United,Everton,4.0,0.0
23/09/2017,Burnley,Huddersfield,0.0,0.0
23/09/2017,Everton,Bournemouth,2.0,1.0
23/09/2017,Leicester,Liverpool,2.0,3.0
23/09/2017,Man City,Crystal Palace,5.0,0.0
23/09/2017,Southampton,Man United,0.0,1.0
23/09/2017,Stoke,Chelsea,0.0,4.0
23/09/2017,Swansea,Watford,1.0,2.0
23/09/2017,West Ham,Tottenham,2.0,3.0
24/09/2017,Brighton,Newcastle,1.0,0.0
25/09/2017,Arsenal,West Brom,2.0,0.0
30/09/2017,Bournemouth,Leicester,0.0,0.0
30/09/2017,Chelsea,Man City,0.0,1.0
30/09/2017,Huddersfield,Tottenham,0.0,4.0
30/09/2017,Man United,Crystal Palace,4.0,0.0
30/09/2017,Stoke,Southampton,2.0,1.0
30/09/2017,West Brom,Watford,2.0,2.0
30/09/2017,West Ham,Swansea,1.0,0.0
01/10/2017,Arsenal,Brighton,2.0,0.0
01/10/2017,Everton,Burnley,0.0,1.0
01/10/2017,Newcastle,Liverpool,1.0,1.0
14/10/2017,Burnley,West Ham,1.0,1.0
14/10/2017,Crystal Palace,Chelsea,2.0,1.0
14/10/2017,Liverpool,Man United,0.0,0.0
14/10/2017,Man City,Stoke,7.0,2.0
14/10/2017,Swansea,Huddersfield,2.0,0.0
14/10/2017,Tottenham,Bournemouth,1.0,0.0
14/10/2017,Watford,Arsenal,2.0,1.0
15/10/2017,Brighton,Everton,1.0,1.0
15/10/2017,Southampton,Newcastle,2.0,2.0
16/10/2017,Leicester,West Brom,1.0,1.0
20/10/2017,West Ham,Brighton,0.0,3.0
21/10/2017,Chelsea,Watford,4.0,2.0
21/10/2017,Huddersfield,Man United,2.0,1.0
21/10/2017,Man City,Burnley,3.0,0.0
21/10/2017,Newcastle,Crystal Palace,1.0,0.0
21/10/2017,Southampton,West Brom,1.0,0.0
21/10/2017,Stoke,Bournemouth,1.0,2.0
21/10/2017,Swansea,Leicester,1.0,2.0
22/10/2017,Everton,Arsenal,2.0,5.0
22/10/2017,Tottenham,Liverpool,4.0,1.0
28/10/2017,Arsenal,Swansea,2.0,1.0
28/10/2017,Bournemouth,Chelsea,0.0,1.0
28/10/2017,Crystal Palace,West Ham,2.0,2.0
28/10/2017,Liverpool,Huddersfield,3.0,0.0
28/10/2017,Man United,Tottenham,1.0,0.0
28/10/2017,Watford,Stoke,0.0,1.0
28/10/2017,West Brom,Man City,2.0,3.0
29/10/2017,Brighton,Southampton,1.0,1.0
29/10/2017,Leicester,Everton,2.0,0.0
30/10/2017,Burnley,Newcastle,1.0,0.0
04/11/2017,Huddersfield,West Brom,1.0,0.0
04/11/2017,Newcastle,Bournemouth,0.0,1.0
04/11/2017,Southampton,Burnley,0.0,1.0
04/11/2017,Stoke,Leicester,2.0,2.0
04/11/2017,Swansea,Brighton,0.0,1.0
04/11/2017,West Ham,Liverpool,1.0,4.0
05/11/2017,Chelsea,Man United,1.0,0.0
05/11/2017,Everton,Watford,3.0,2.0
05/11/2017,Man City,Arsenal,3.0,1.0
05/11/2017,Tottenham,Crystal Palace,1.0,0.0
18/11/2017,Arsenal,Tottenham,2.0,0.0
18/11/2017,Bournemouth,Huddersfield,4.0,0.0
18/11/2017,Burnley,Swansea,2.0,0.0
18/11/2017,Crystal Palace,Everton,2.0,2.0
18/11/2017,Leicester,Man City,0.0,2.0
18/11/2017,Liverpool,Southampton,3.0,0.0
18/11/2017,Man United,Newcastle,4.0,1.0
18/11/2017,West Brom,Chelsea,0.0,4.0
19/11/2017,Watford,West Ham,2.0,0.0
20/11/2017,Brighton,Stoke,2.0,2.0
24/11/2017,West Ham,Leicester,1.0,1.0
25/11/2017,Crystal Palace,Stoke,2.0,1.0
25/11/2017,Liverpool,Chelsea,1.0,1.0
25/11/2017,Man United,Brighton,1.0,0.0
25/11/2017,Newcastle,Watford,0.0,3.0
25/11/2017,Swansea,Bournemouth,0.0,0.0
25/11/2017,Tottenham,West Brom,1.0,1.0
26/11/2017,Burnley,Arsenal,0.0,1.0
26/11/2017,Huddersfield,Man City,1.0,2.0
26/11/2017,Southampton,Everton,4.0,1.0
28/11/2017,Brighton,Crystal Palace,0.0,0.0
28/11/2017,Leicester,Tottenham,2.0,1.0
28/11/2017,Watford,Man United,2.0,4.0
28/11/2017,West Brom,Newcastle,2.0,2.0
29/11/2017,Arsenal,Huddersfield,5.0,0.0
29/11/2017,Bournemouth,Burnley,1.0,2.0
29/11/2017,Chelsea,Swansea,1.0,0.0
29/11/2017,Everton,West Ham,4.0,0.0
29/11/2017,Man City,Southampton,2.0,1.0
29/11/2017,Stoke,Liverpool,0.0,3.0
02/12/2017,Arsenal,Man United,1.0,3.0
02/12/2017,Brighton,Liverpool,1.0,5.0
02/12/2017,Chelsea,Newcastle,3.0,1.0
02/12/2017,Everton,Huddersfield,2.0,0.0
02/12/2017,Leicester,Burnley,1.0,0.0
02/12/2017,Stoke,Swansea,2.0,1.0
02/12/2017,Watford,Tottenham,1.0,1.0
02/12/2017,West Brom,Crystal Palace,0.0,0.0
03/12/2017,Bournemouth,Southampton,1.0,1.0
03/12/2017,Man City,West Ham,2.0,1.0
09/12/2017,Burnley,Watford,1.0,0.0
09/12/2017,Crystal Palace,Bournemouth,2.0,2.0
09/12/2017,Huddersfield,Brighton,2.0,0.0
09/12/2017,Newcastle,Leicester,2.0,3.0
09/12/2017,Swansea,West Brom,1.0,0.0
09/12/2017,Tottenham,Stoke,5.0,1.0
09/12/2017,West Ham,Chelsea,1.0,0.0
10/12/2017,Liverpool,Everton,1.0,1.0
10/12/2017,Man United,Man City,1.0,2.0
10/12/2017,Southampton,Arsenal,1.0,1.0
12/12/2017,Burnley,Stoke,1.0,0.0
12/12/2017,Crystal Palace,Watford,2.0,1.0
12/12/2017,Huddersfield,Chelsea,1.0,3.0
13/12/2017,Liverpool,West Brom,0.0,0.0
13/12/2017,Man United,Bournemouth,1.0,0.0
13/12/2017,Newcastle,Everton,0.0,1.0
13/12/2017,Southampton,Leicester,1.0,4.0
13/12/2017,Swansea,Man City,0.0,4.0
13/12/2017,Tottenham,Brighton,2.0,0.0
13/12/2017,West Ham,Arsenal,0.0,0.0
16/12/2017,Arsenal,Newcastle,1.0,0.0
16/12/2017,Brighton,Burnley,0.0,0.0
16/12/2017,Chelsea,Southampton,1.0,0.0
16/12/2017,Leicester,Crystal Palace,0.0,3.0
16/12/2017,Man City,Tottenham,4.0,1.0
16/12/2017,Stoke,West Ham,0.0,3.0
16/12/2017,Watford,Huddersfield,1.0,4.0
17/12/2017,Bournemouth,Liverpool,0.0,4.0
17/12/2017,West Brom,Man United,1.0,2.0
18/12/2017,Everton,Swansea,3.0,1.0
22/12/2017,Arsenal,Liverpool,3.0,3.0
23/12/2017,Brighton,Watford,1.0,0.0
23/12/2017,Burnley,Tottenham,0.0,3.0
23/12/2017,Everton,Chelsea,0.0,0.0
23/12/2017,Leicester,Man United,2.0,2.0
23/12/2017,Man City,Bournemouth,4.0,0.0
23/12/2017,Southampton,Huddersfield,1.0,1.0
23/12/2017,Stoke,West Brom,3.0,1.0
23/12/2017,Swansea,Crystal Palace,1.0,1.0
23/12/2017,West Ham,Newcastle,2.0,3.0
26/12/2017,Bournemouth,West Ham,3.0,3.0
26/12/2017,Chelsea,Brighton,2.0,0.0
26/12/2017,Huddersfield,Stoke,1.0,1.0
26/12/2017,Liverpool,Swansea,5.0,0.0
26/12/2017,Man United,Burnley,2.0,2.0
26/12/2017,Tottenham,Southampton,5.0,2.0
26/12/2017,Watford,Leicester,2.0,1.0
26/12/2017,West Brom,Everton,0.0,0.0
27/12/2017,Newcastle,Man City,0.0,1.0
28/12/2017,Crystal Palace,Arsenal,2.0,3.0
30/12/2017,Bournemouth,Everton,2.0,1.0
30/12/2017,Chelsea,Stoke,5.0,0.0
30/12/2017,Huddersfield,Burnley,0.0,0.0
30/12/2017,Liverpool,Leicester,2.0,1.0
30/12/2017,Man United,Southampton,0.0,0.0
30/12/2017,Newcastle,Brighton,0.0,0.0
30/12/2017,Watford,Swansea,1.0,2.0
31/12/2017,Crystal Palace,Man City,0.0,0.0
31/12/2017,West Brom,Arsenal,1.0,1.0
01/01/2018,Brighton,Bournemouth,2.0,2.0
01/01/2018,Burnley,Liverpool,1.0,2.0
01/01/2018,Everton,Man United,0.0,2.0
01/01/2018,Leicester,Huddersfield,3.0,0.0
01/01/2018,Stoke,Newcastle,0.0,1.0
02/01/2018,Man City,Watford,3.0,1.0
02/01/2018,Southampton,Crystal Palace,1.0,2.0
02/01/2018,Swansea,Tottenham,0.0,2.0
02/01/2018,West Ham,West Brom,2.0,1.0
03/01/2018,Arsenal,Chelsea,2.0,2.0
04/01/2018,Tottenham,West Ham,1.0,1.0
13/01/2018,Chelsea,Leicester,0.0,0.0
13/01/2018,Crystal Palace,Burnley,1.0,0.0
13/01/2018,Huddersfield,West Ham,1.0,4.0
13/01/2018,Newcastle,Swansea,1.0,1.0
13/01/2018,Tottenham,Everton,4.0,0.0
13/01/2018,Watford,Southampton,2.0,2.0
13/01/2018,West Brom,Brighton,2.0,0.0
14/01/2018,Bournemouth,Arsenal,2.0,1.0
14/01/2018,Liverpool,Man City,4.0,3.0
15/01/2018,Man United,Stoke,3.0,0.0
20/01/2018,Arsenal,Crystal Palace,4.0,1.0
20/01/2018,Brighton,Chelsea,0.0,4.0
20/01/2018,Burnley,Man United,0.0,1.0
20/01/2018,Everton,West Brom,1.0,1.0
20/01/2018,Leicester,Watford,2.0,0.0
20/01/2018,Man City,Newcastle,3.0,1.0
20/01/2018,Stoke,Huddersfield,2.0,0.0
20/01/2018,West Ham,Bournemouth,1.0,1.0
21/01/2018,Southampton,Tottenham,1.0,1.0
22/01/2018,Swansea,Liverpool,1.0,0.0
30/01/2018,Huddersfield,Liverpool,0.0,3.0
30/01/2018,Swansea,Arsenal,3.0,1.0
30/01/2018,West Ham,Crystal Palace,1.0,1.0
31/01/2018,Chelsea,Bournemouth,0.0,3.0
31/01/2018,Everton,Leicester,2.0,1.0
31/01/2018,Man City,West Brom,3.0,0.0
31/01/2018,Newcastle,Burnley,1.0,1.0
31/01/2018,Southampton,Brighton,1.0,1.0
31/01/2018,Stoke,Watford,0.0,0.0
31/01/2018,Tottenham,Man United,2.0,0.0
03/02/2018,Arsenal,Everton,5.0,1.0
03/02/2018,Bournemouth,Stoke,2.0,1.0
03/02/2018,Brighton,West Ham,3.0,1.0
03/02/2018,Burnley,Man City,1.0,1.0
03/02/2018,Leicester,Swansea,1.0,1.0
03/02/2018,Man United,Huddersfield,2.0,0.0
03/02/2018,West Brom,Southampton,2.0,3.0
04/02/2018,Crystal Palace,Newcastle,1.0,1.0
04/02/2018,Liverpool,Tottenham,2.0,2.0
05/02/2018,Watford,Chelsea,4.0,1.0
10/02/2018,Everton,Crystal Palace,3.0,1.0
10/02/2018,Man City,Leicester,5.0,1.0
10/02/2018,Stoke,Brighton,1.0,1.0
10/02/2018,Swansea,Burnley,1.0,0.0
10/02/2018,Tottenham,Arsenal,1.0,0.0
10/02/2018,West Ham,Watford,2.0,0.0
11/02/2018,Huddersfield,Bournemouth,4.0,1.0
11/02/2018,Newcastle,Man United,1.0,0.0
11/02/2018,Southampton,Liverpool,0.0,2.0
12/02/2018,Chelsea,West Brom,3.0,0.0
24/02/2018,Bournemouth,Newcastle,2.0,2.0
24/02/2018,Brighton,Swansea,4.0,1.0
24/02/2018,Burnley,Southampton,1.0,1.0
24/02/2018,Leicester,Stoke,1.0,1.0
24/02/2018,Liverpool,West Ham,4.0,1.0
24/02/2018,Watford,Everton,1.0,0.0
24/02/2018,West Brom,Huddersfield,1.0,2.0
25/02/2018,Crystal Palace,Tottenham,0.0,1.0
25/02/2018,Man United,Chelsea,2.0,1.0
01/03/2018,Arsenal,Man City,0.0,3.0
03/03/2018,Burnley,Everton,2.0,1.0
03/03/2018,Leicester,Bournemouth,1.0,1.0
03/03/2018,Liverpool,Newcastle,2.0,0.0
03/03/2018,Southampton,Stoke,0.0,0.0
03/03/2018,Swansea,West Ham,4.0,1.0
03/03/2018,Tottenham,Huddersfield,2.0,0.0
03/03/2018,Watford,West Brom,1.0,0.0
04/03/2018,Brighton,Arsenal,2.0,1.0
04/03/2018,Man City,Chelsea,1.0,0.0
05/03/2018,Crystal Palace,Man United,2.0,3.0
10/03/2018,Chelsea,Crystal Palace,2.0,1.0
10/03/2018,Everton,Brighton,2.0,0.0
10/03/2018,Huddersfield,Swansea,0.0,0.0
10/03/2018,Man United,Liverpool,2.0,1.0
10/03/2018,Newcastle,Southampton,3.0,0.0
10/03/2018,West Brom,Leicester,1.0,4.0
10/03/2018,West Ham,Burnley,0.0,3.0
11/03/2018,Arsenal,Watford,3.0,0.0
11/03/2018,Bournemouth,Tottenham,1.0,4.0
12/03/2018,Stoke,Man City,0.0,2.0
17/03/2018,Bournemouth,West Brom,2.0,1.0
17/03/2018,Huddersfield,Crystal Palace,0.0,2.0
17/03/2018,Liverpool,Watford,5.0,0.0
17/03/2018,Stoke,Everton,1.0,2.0
31/03/2018,Brighton,Leicester,0.0,2.0
31/03/2018,Crystal Palace,Liverpool,1.0,2.0
31/03/2018,Everton,Man City,1.0,3.0
31/03/2018,Man United,Swansea,2.0,0.0
31/03/2018,Newcastle,Huddersfield,1.0,0.0
31/03/2018,Watford,Bournemouth,2.0,2.0
31/03/2018,West Brom,Burnley,1.0,2.0
31/03/2018,West Ham,Southampton,3.0,0.0
01/04/2018,Arsenal,Stoke,3.0,0.0
01/04/2018,Chelsea,Tottenham,1.0,3.0
07/04/2018,Bournemouth,Crystal Palace,2.0,2.0
07/04/2018,Brighton,Huddersfield,1.0,1.0
07/04/2018,Everton,Liverpool,0.0,0.0
07/04/2018,Leicester,Newcastle,1.0,2.0
07/04/2018,Man City,Man United,2.0,3.0
07/04/2018,Stoke,Tottenham,1.0,2.0
07/04/2018,Watford,Burnley,1.0,2.0
07/04/2018,West Brom,Swansea,1.0,1.0
08/04/2018,Arsenal,Southampton,3.0,2.0
08/04/2018,Chelsea,West Ham,1.0,1.0
14/04/2018,Burnley,Leicester,2.0,1.0
14/04/2018,Crystal Palace,Brighton,3.0,2.0
14/04/2018,Huddersfield,Watford,1.0,0.0
14/04/2018,Liverpool,Bournemouth,3.0,0.0
14/04/2018,Southampton,Chelsea,2.0,3.0
14/04/2018,Swansea,Everton,1.0,1.0
14/04/2018,Tottenham,Man City,1.0,3.0
15/04/2018,Man United,West Brom,0.0,1.0
15/04/2018,Newcastle,Arsenal,2.0,1.0
16/04/2018,West Ham,Stoke,1.0,1.0
17/04/2018,Brighton,Tottenham,1.0,1.0
18/04/2018,Bournemouth,Man United,0.0,2.0
19/04/2018,Burnley,Chelsea,1.0,2.0
19/04/2018,Leicester,Southampton,0.0,0.0
21/04/2018,Watford,Crystal Palace,0.0,0.0
21/04/2018,West Brom,Liverpool,2.0,2.0
22/04/2018,Arsenal,West Ham,4.0,1.0
22/04/2018,Man City,Swansea,5.0,0.0
22/04/2018,Stoke,Burnley,1.0,1.0
23/04/2018,Everton,Newcastle,1.0,0.0
28/04/2018,Burnley,Brighton,0.0,0.0
28/04/2018,Crystal Palace,Leicester,5.0,0.0
28/04/2018,Huddersfield,Everton,0.0,2.0
28/04/2018,Liverpool,Stoke,0.0,0.0
28/04/2018,Newcastle,West Brom,0.0,1.0
28/04/2018,Southampton,Bournemouth,2.0,1.0
28/04/2018,Swansea,Chelsea,0.0,1.0
29/04/2018,Man United,Arsenal,2.0,1.0
29/04/2018,West Ham,Man City,1.0,4.0
30/04/2018,Tottenham,Watford,2.0,0.0
04/05/2018,Brighton,Man United,1.0,0.0
05/05/2018,Bournemouth,Swansea,1.0,0.0
05/05/2018,Everton,Southampton,1.0,1.0
05/05/2018,Leicester,West Ham,0.0,2.0
05/05/2018,Stoke,Crystal Palace,1.0,2.0
05/05/2018,Watford,Newcastle,2.0,1.0
05/05/2018,West Brom,Tottenham,1.0,0.0
06/05/2018,Arsenal,Burnley,5.0,0.0
06/05/2018,Chelsea,Liverpool,1.0,0.0
06/05/2018,Man City,Huddersfield,0.0,0.0
08/05/2018,Swansea,Southampton,0.0,1.0
09/05/2018,Chelsea,Huddersfield,1.0,1.0
09/05/2018,Leicester,Arsenal,3.0,1.0
09/05/2018,Man City,Brighton,3.0,1.0
09/05/2018,Tottenham,Newcastle,1.0,0.0
10/05/2018,West Ham,Man United,0.0,0.0
13/05/2018,Burnley,Bournemouth,1.0,2.0
13/05/2018,Crystal Palace,West Brom,2.0,0.0
13/05/2018,Huddersfield,Arsenal,0.0,1.0
13/05/2018,Liverpool,Brighton,4.0,0.0
13/05/2018,Man United,Watford,1.0,0.0
13/05/2018,Newcastle,Chelsea,3.0,0.0
13/05/2018,Southampton,Man City,0.0,1.0
13/05/2018,Swansea,Stoke,1.0,2.0
13/05/2018,Tottenham,Leicester,5.0,4.0
13/05/2018,West Ham,Everton,3.0,1.0
10/08/2018,Man United,Leicester,2.0,1.0
11/08/2018,Bournemouth,Cardiff,2.0,0.0
11/08/2018,Fulham,Crystal Palace,0.0,2.0
11/08/2018,Huddersfield,Chelsea,0.0,3.0
11/08/2018,Newcastle,Tottenham,1.0,2.0
11/08/2018,Watford,Brighton,2.0,0.0
11/08/2018,Wolves,Everton,2.0,2.0
12/08/2018,Arsenal,Man City,0.0,2.0
12/08/2018,Liverpool,West Ham,4.0,0.0
12/08/2018,Southampton,Burnley,0.0,0.0
18/08/2018,Cardiff,Newcastle,0.0,0.0
18/08/2018,Chelsea,Arsenal,3.0,2.0
18/08/2018,Everton,Southampton,2.0,1.0
18/08/2018,Leicester,Wolves,2.0,0.0
18/08/2018,Tottenham,Fulham,3.0,1.0
18/08/2018,West Ham,Bournemouth,1.0,2.0
19/08/2018,Brighton,Man United,3.0,2.0
19/08/2018,Burnley,Watford,1.0,3.0
19/08/2018,Man City,Huddersfield,6.0,1.0
20/08/2018,Crystal Palace,Liverpool,0.0,2.0
25/08/2018,Arsenal,West Ham,3.0,1.0
25/08/2018,Bournemouth,Everton,2.0,2.0
25/08/2018,Huddersfield,Cardiff,0.0,0.0
25/08/2018,Liverpool,Brighton,1.0,0.0
25/08/2018,Southampton,Leicester,1.0,2.0
25/08/2018,Wolves,Man City,1.0,1.0
26/08/2018,Fulham,Burnley,4.0,2.0
26/08/2018,Newcastle,Chelsea,1.0,2.0
26/08/2018,Watford,Crystal Palace,2.0,1.0
27/08/2018,Man United,Tottenham,0.0,3.0
01/09/2018,Brighton,Fulham,2.0,2.0
01/09/2018,Chelsea,Bournemouth,2.0,0.0
01/09/2018,Crystal Palace,Southampton,0.0,2.0
01/09/2018,Everton,Huddersfield,1.0,1.0
01/09/2018,Leicester,Liverpool,1.0,2.0
01/09/2018,Man City,Newcastle,2.0,1.0
01/09/2018,West Ham,Wolves,0.0,1.0
02/09/2018,Burnley,Man United,0.0,2.0
02/09/2018,Cardiff,Arsenal,2.0,3.0
02/09/2018,Watford,Tottenham,2.0,1.0
15/09/2018,Bournemouth,Leicester,4.0,2.0
15/09/2018,Chelsea,Cardiff,4.0,1.0
15/09/2018,Huddersfield,Crystal Palace,0.0,1.0
15/09/2018,Man City,Fulham,3.0,0.0
15/09/2018,Newcastle,Arsenal,1.0,2.0
15/09/2018,Tottenham,Liverpool,1.0,2.0
15/09/2018,Watford,Man United,1.0,2.0
16/09/2018,Everton,West Ham,1.0,3.0
16/09/2018,Wolves,Burnley,1.0,0.0
17/09/2018,Southampton,Brighton,2.0,2.0
22/09/2018,Brighton,Tottenham,1.0,2.0
22/09/2018,Burnley,Bournemouth,4.0,0.0
22/09/2018,Cardiff,Man City,0.0,5.0
22/09/2018,Crystal Palace,Newcastle,0.0,0.0
22/09/2018,Fulham,Watford,1.0,1.0
22/09/2018,Leicester,Huddersfield,3.0,1.0
22/09/2018,Liverpool,Southampton,3.0,0.0
22/09/2018,Man United,Wolves,1.0,1.0
23/09/2018,Arsenal,Everton,2.0,0.0
23/09/2018,West Ham,Chelsea,0.0,0.0
29/09/2018,Arsenal,Watford,2.0,0.0
29/09/2018,Chelsea,Liverpool,1.0,1.0
29/09/2018,Everton,Fulham,3.0,0.0
29/09/2018,Huddersfield,Tottenham,0.0,2.0
29/09/2018,Man City,Brighton,2.0,0.0
29/09/2018,Newcastle,Leicester,0.0,2.0
29/09/2018,West Ham,Man United,3.0,1.0
29/09/2018,Wolves,Southampton,2.0,0.0
30/09/2018,Cardiff,Burnley,1.0,2.0
01/10/2018,Bournemouth,Crystal Palace,2.0,1.0
05/10/2018,Brighton,West Ham,1.0,0.0
06/10/2018,Burnley,Huddersfield,1.0,1.0
06/10/2018,Crystal Palace,Wolves,0.0,1.0
06/10/2018,Leicester,Everton,1.0,2.0
06/10/2018,Man United,Newcastle,3.0,2.0
06/10/2018,Tottenham,Cardiff,1.0,0.0
06/10/2018,Watford,Bournemouth,0.0,4.0
07/10/2018,Fulham,Arsenal,1.0,5.0
07/10/2018,Liverpool,Man City,0.0,0.0
07/10/2018,Southampton,Chelsea,0.0,3.0
20/10/2018,Bournemouth,Southampton,0.0,0.0
20/10/2018,Cardiff,Fulham,4.0,2.0
20/10/2018,Chelsea,Man United,2.0,2.0
20/10/2018,Huddersfield,Liverpool,0.0,1.0
20/10/2018,Man City,Burnley,5.0,0.0
20/10/2018,Newcastle,Brighton,0.0,1.0
20/10/2018,West Ham,Tottenham,0.0,1.0
20/10/2018,Wolves,Watford,0.0,2.0
21/10/2018,Everton,Crystal Palace,2.0,0.0
22/10/2018,Arsenal,Leicester,3.0,1.0
27/10/2018,Brighton,Wolves,1.0,0.0
27/10/2018,Fulham,Bournemouth,0.0,3.0
27/10/2018,Leicester,West Ham,1.0,1.0
27/10/2018,Liverpool,Cardiff,4.0,1.0
27/10/2018,Southampton,Newcastle,0.0,0.0
27/10/2018,Watford,Huddersfield,3.0,0.0
28/10/2018,Burnley,Chelsea,0.0,4.0
28/10/2018,Crystal Palace,Arsenal,2.0,2.0
28/10/2018,Man United,Everton,2.0,1.0
29/10/2018,Tottenham,Man City,0.0,1.0
03/11/2018,Arsenal,Liverpool,1.0,1.0
03/11/2018,Bournemouth,Man United,1.0,2.0
03/11/2018,Cardiff,Leicester,0.0,1.0
03/11/2018,Everton,Brighton,3.0,1.0
03/11/2018,Newcastle,Watford,1.0,0.0
03/11/2018,West Ham,Burnley,4.0,2.0
03/11/2018,Wolves,Tottenham,2.0,3.0
04/11/2018,Chelsea,Crystal Palace,3.0,1.0
04/11/2018,Man City,Southampton,6.0,1.0
05/11/2018,Huddersfield,Fulham,1.0,0.0
10/11/2018,Cardiff,Brighton,2.0,1.0
10/11/2018,Crystal Palace,Tottenham,0.0,1.0
10/11/2018,Huddersfield,West Ham,1.0,1.0
10/11/2018,Leicester,Burnley,0.0,0.0
10/11/2018,Newcastle,Bournemouth,2.0,1.0
10/11/2018,Southampton,Watford,1.0,1.0
11/11/2018,Arsenal,Wolves,1.0,1.0
11/11/2018,Chelsea,Everton,0.0,0.0
11/11/2018,Liverpool,Fulham,2.0,0.0
11/11/2018,Man City,Man United,3.0,1.0
24/11/2018,Brighton,Leicester,1.0,1.0
24/11/2018,Everton,Cardiff,1.0,0.0
24/11/2018,Fulham,Southampton,3.0,2.0
24/11/2018,Man United,Crystal Palace,0.0,0.0
24/11/2018,Tottenham,Chelsea,3.0,1.0
24/11/2018,Watford,Liverpool,0.0,3.0
24/11/2018,West Ham,Man City,0.0,4.0
25/11/2018,Bournemouth,Arsenal,1.0,2.0
25/11/2018,Wolves,Huddersfield,0.0,2.0
26/11/2018,Burnley,Newcastle,1.0,2.0
30/11/2018,Cardiff,Wolves,2.0,1.0
01/12/2018,Crystal Palace,Burnley,2.0,0.0
01/12/2018,Huddersfield,Brighton,1.0,2.0
01/12/2018,Leicester,Watford,2.0,0.0
01/12/2018,Man City,Bournemouth,3.0,1.0
01/12/2018,Newcastle,West Ham,0.0,3.0
01/12/2018,Southampton,Man United,2.0,2.0
02/12/2018,Arsenal,Tottenham,4.0,2.0
02/12/2018,Chelsea,Fulham,2.0,0.0
02/12/2018,Liverpool,Everton,1.0,0.0
04/12/2018,Bournemouth,Huddersfield,2.0,1.0
04/12/2018,Brighton,Crystal Palace,3.0,1.0
04/12/2018,Watford,Man City,1.0,2.0
04/12/2018,West Ham,Cardiff,3.0,1.0
05/12/2018,Burnley,Liverpool,1.0,3.0
05/12/2018,Everton,Newcastle,1.0,1.0
05/12/2018,Fulham,Leicester,1.0,1.0
05/12/2018,Man United,Arsenal,2.0,2.0
05/12/2018,Tottenham,Southampton,3.0,1.0
05/12/2018,Wolves,Chelsea,2.0,1.0
08/12/2018,Arsenal,Huddersfield,1.0,0.0
08/12/2018,Bournemouth,Liverpool,0.0,4.0
08/12/2018,Burnley,Brighton,1.0,0.0
08/12/2018,Cardiff,Southampton,1.0,0.0
08/12/2018,Chelsea,Man City,2.0,0.0
08/12/2018,Leicester,Tottenham,0.0,2.0
08/12/2018,Man United,Fulham,4.0,1.0
08/12/2018,West Ham,Crystal Palace,3.0,2.0
09/12/2018,Newcastle,Wolves,1.0,2.0
10/12/2018,Everton,Watford,2.0,2.0
15/12/2018,Crystal Palace,Leicester,1.0,0.0
15/12/2018,Fulham,West Ham,0.0,2.0
15/12/2018,Huddersfield,Newcastle,0.0,1.0
15/12/2018,Man City,Everton,3.0,1.0
15/12/2018,Tottenham,Burnley,1.0,0.0
15/12/2018,Watford,Cardiff,3.0,2.0
15/12/2018,Wolves,Bournemouth,2.0,0.0
16/12/2018,Brighton,Chelsea,1.0,2.0
16/12/2018,Liverpool,Man United,3.0,1.0
16/12/2018,Southampton,Arsenal,3.0,2.0
21/12/2018,Wolves,Liverpool,0.0,2.0
22/12/2018,Arsenal,Burnley,3.0,1.0
22/12/2018,Bournemouth,Brighton,2.0,0.0
22/12/2018,Cardiff,Man United,1.0,5.0
22/12/2018,Chelsea,Leicester,0.0,1.0
22/12/2018,Huddersfield,Southampton,1.0,3.0
22/12/2018,Man City,Crystal Palace,2.0,3.0
22/12/2018,Newcastle,Fulham,0.0,0.0
22/12/2018,West Ham,Watford,0.0,2.0
23/12/2018,Everton,Tottenham,2.0,6.0
26/12/2018,Brighton,Arsenal,1.0,1.0
26/12/2018,Burnley,Everton,1.0,5.0
26/12/2018,Crystal Palace,Cardiff,0.0,0.0
26/12/2018,Fulham,Wolves,1.0,1.0
26/12/2018,Leicester,Man City,2.0,1.0
26/12/2018,Liverpool,Newcastle,4.0,0.0
26/12/2018,Man United,Huddersfield,3.0,1.0
26/12/2018,Tottenham,Bournemouth,5.0,0.0
26/12/2018,Watford,Chelsea,1.0,2.0
27/12/2018,Southampton,West Ham,1.0,2.0
29/12/2018,Brighton,Everton,1.0,0.0
29/12/2018,Fulham,Huddersfield,1.0,0.0
29/12/2018,Leicester,Cardiff,0.0,1.0
29/12/2018,Liverpool,Arsenal,5.0,1.0
29/12/2018,Tottenham,Wolves,1.0,3.0
29/12/2018,Watford,Newcastle,1.0,1.0
30/12/2018,Burnley,West Ham,2.0,0.0
30/12/2018,Crystal Palace,Chelsea,0.0,1.0
30/12/2018,Man United,Bournemouth,4.0,1.0
30/12/2018,Southampton,Man City,1.0,3.0
01/01/2019,Arsenal,Fulham,4.0,1.0
01/01/2019,Cardiff,Tottenham,0.0,3.0
01/01/2019,Everton,Leicester,0.0,1.0
02/01/2019,Bournemouth,Watford,3.0,3.0
02/01/2019,Chelsea,Southampton,0.0,0.0
02/01/2019,Huddersfield,Burnley,1.0,2.0
02/01/2019,Newcastle,Man United,0.0,2.0
02/01/2019,West Ham,Brighton,2.0,2.0
02/01/2019,Wolves,Crystal Palace,0.0,2.0
03/01/2019,Man City,Liverpool,2.0,1.0
12/01/2019,Brighton,Liverpool,0.0,1.0
12/01/2019,Burnley,Fulham,2.0,1.0
12/01/2019,Cardiff,Huddersfield,0.0,0.0
12/01/2019,Chelsea,Newcastle,2.0,1.0
12/01/2019,Crystal Palace,Watford,1.0,2.0
12/01/2019,Leicester,Southampton,1.0,2.0
12/01/2019,West Ham,Arsenal,1.0,0.0
13/01/2019,Everton,Bournemouth,2.0,0.0
13/01/2019,Tottenham,Man United,0.0,1.0
14/01/2019,Man City,Wolves,3.0,0.0
19/01/2019,Arsenal,Chelsea,2.0,0.0
19/01/2019,Bournemouth,West Ham,2.0,0.0
19/01/2019,Liverpool,Crystal Palace,4.0,3.0
19/01/2019,Man United,Brighton,2.0,1.0
19/01/2019,Newcastle,Cardiff,3.0,0.0
19/01/2019,Southampton,Everton,2.0,1.0
19/01/2019,Watford,Burnley,0.0,0.0
19/01/2019,Wolves,Leicester,4.0,3.0
20/01/2019,Fulham,Tottenham,1.0,2.0
20/01/2019,Huddersfield,Man City,0.0,3.0
29/01/2019,Arsenal,Cardiff,2.0,1.0
29/01/2019,Fulham,Brighton,4.0,2.0
29/01/2019,Huddersfield,Everton,0.0,1.0
29/01/2019,Man United,Burnley,2.0,2.0
29/01/2019,Newcastle,Man City,2.0,1.0
29/01/2019,Wolves,West Ham,3.0,0.0
30/01/2019,Bournemouth,Chelsea,4.0,0.0
30/01/2019,Liverpool,Leicester,1.0,1.0
30/01/2019,Southampton,Crystal Palace,1.0,1.0
30/01/2019,Tottenham,Watford,2.0,1.0
02/02/2019,Brighton,Watford,0.0,0.0
02/02/2019,Burnley,Southampton,1.0,1.0
02/02/2019,Cardiff,Bournemouth,2.0,0.0
02/02/2019,Chelsea,Huddersfield,5.0,0.0
02/02/2019,Crystal Palace,Fulham,2.0,0.0
02/02/2019,Everton,Wolves,1.0,3.0
02/02/2019,Tottenham,Newcastle,1.0,0.0
03/02/2019,Leicester,Man United,0.0,1.0
03/02/2019,Man City,Arsenal,3.0,1.0
04/02/2019,West Ham,Liverpool,1.0,1.0
06/02/2019,Everton,Man City,0.0,2.0
09/02/2019,Brighton,Burnley,1.0,3.0
09/02/2019,Crystal Palace,West Ham,1.0,1.0
09/02/2019,Fulham,Man United,0.0,3.0
09/02/2019,Huddersfield,Arsenal,1.0,2.0
09/02/2019,Liverpool,Bournemouth,3.0,0.0
09/02/2019,Southampton,Cardiff,1.0,2.0
09/02/2019,Watford,Everton,1.0,0.0
10/02/2019,Man City,Chelsea,6.0,0.0
10/02/2019,Tottenham,Leicester,3.0,1.0
11/02/2019,Wolves,Newcastle,1.0,1.0
22/02/2019,Cardiff,Watford,1.0,5.0
22/02/2019,West Ham,Fulham,3.0,1.0
23/02/2019,Bournemouth,Wolves,1.0,1.0
23/02/2019,Burnley,Tottenham,2.0,1.0
23/02/2019,Leicester,Crystal Palace,1.0,4.0
23/02/2019,Newcastle,Huddersfield,2.0,0.0
24/02/2019,Arsenal,Southampton,2.0,0.0
24/02/2019,Man United,Liverpool,0.0,0.0
26/02/2019,Cardiff,Everton,0.0,3.0
26/02/2019,Huddersfield,Wolves,1.0,0.0
26/02/2019,Leicester,Brighton,2.0,1.0
26/02/2019,Newcastle,Burnley,2.0,0.0
27/02/2019,Arsenal,Bournemouth,5.0,1.0
27/02/2019,Chelsea,Tottenham,2.0,0.0
27/02/2019,Crystal Palace,Man United,1.0,3.0
27/02/2019,Liverpool,Watford,5.0,0.0
27/02/2019,Man City,West Ham,1.0,0.0
27/02/2019,Southampton,Fulham,2.0,0.0
02/03/2019,Bournemouth,Man City,0.0,1.0
02/03/2019,Brighton,Huddersfield,1.0,0.0
02/03/2019,Burnley,Crystal Palace,1.0,3.0
02/03/2019,Man United,Southampton,3.0,2.0
02/03/2019,Tottenham,Arsenal,1.0,1.0
02/03/2019,West Ham,Newcastle,2.0,0.0
02/03/2019,Wolves,Cardiff,2.0,0.0
03/03/2019,Everton,Liverpool,0.0,0.0
03/03/2019,Fulham,Chelsea,1.0,2.0
03/03/2019,Watford,Leicester,2.0,1.0
09/03/2019,Cardiff,West Ham,2.0,0.0
09/03/2019,Crystal Palace,Brighton,1.0,2.0
09/03/2019,Huddersfield,Bournemouth,0.0,2.0
09/03/2019,Leicester,Fulham,3.0,1.0
09/03/2019,Man City,Watford,3.0,1.0
09/03/2019,Newcastle,Everton,3.0,2.0
09/03/2019,Southampton,Tottenham,2.0,1.0
10/03/2019,Arsenal,Man United,2.0,0.0
10/03/2019,Chelsea,Wolves,1.0,1.0
10/03/2019,Liverpool,Burnley,4.0,2.0
16/03/2019,Bournemouth,Newcastle,2.0,2.0
16/03/2019,Burnley,Leicester,1.0,2.0
16/03/2019,West Ham,Huddersfield,4.0,3.0
17/03/2019,Everton,Chelsea,2.0,0.0
17/03/2019,Fulham,Liverpool,1.0,2.0
30/03/2019,Brighton,Southampton,0.0,1.0
30/03/2019,Burnley,Wolves,2.0,0.0
30/03/2019,Crystal Palace,Huddersfield,2.0,0.0
30/03/2019,Fulham,Man City,0.0,2.0
30/03/2019,Leicester,Bournemouth,2.0,0.0
30/03/2019,Man United,Watford,2.0,1.0
30/03/2019,West Ham,Everton,0.0,2.0
31/03/2019,Cardiff,Chelsea,1.0,2.0
31/03/2019,Liverpool,Tottenham,2.0,1.0
01/04/2019,Arsenal,Newcastle,2.0,0.0
02/04/2019,Watford,Fulham,4.0,1.0
02/04/2019,Wolves,Man United,2.0,1.0
03/04/2019,Chelsea,Brighton,3.0,0.0
03/04/2019,Man City,Cardiff,2.0,0.0
03/04/2019,Tottenham,Crystal Palace,2.0,0.0
05/04/2019,Southampton,Liverpool,1.0,3.0
06/04/2019,Bournemouth,Burnley,1.0,3.0
06/04/2019,Huddersfield,Leicester,1.0,4.0
06/04/2019,Newcastle,Crystal Palace,0.0,1.0
07/04/2019,Everton,Arsenal,1.0,0.0
08/04/2019,Chelsea,West Ham,2.0,0.0
12/04/2019,Leicester,Newcastle,0.0,1.0
13/04/2019,Brighton,Bournemouth,0.0,5.0
13/04/2019,Burnley,Cardiff,2.0,0.0
13/04/2019,Fulham,Everton,2.0,0.0
13/04/2019,Man United,West Ham,2.0,1.0
13/04/2019,Southampton,Wolves,3.0,1.0
13/04/2019,Tottenham,Huddersfield,4.0,0.0
14/04/2019,Crystal Palace,Man City,1.0,3.0
14/04/2019,Liverpool,Chelsea,2.0,0.0
15/04/2019,Watford,Arsenal,0.0,1.0
16/04/2019,Brighton,Cardiff,0.0,2.0
20/04/2019,Bournemouth,Fulham,0.0,1.0
20/04/2019,Huddersfield,Watford,1.0,2.0
20/04/2019,Man City,Tottenham,1.0,0.0
20/04/2019,Newcastle,Southampton,3.0,1.0
20/04/2019,West Ham,Leicester,2.0,2.0
20/04/2019,Wolves,Brighton,0.0,0.0
21/04/2019,Arsenal,Crystal Palace,2.0,3.0
21/04/2019,Cardiff,Liverpool,0.0,2.0
21/04/2019,Everton,Man United,4.0,0.0
22/04/2019,Chelsea,Burnley,2.0,2.0
23/04/2019,Tottenham,Brighton,1.0,0.0
23/04/2019,Watford,Southampton,1.0,1.0
24/04/2019,Man United,Man City,0.0,2.0
24/04/2019,Wolves,Arsenal,3.0,1.0
26/04/2019,Liverpool,Huddersfield,5.0,0.0
27/04/2019,Brighton,Newcastle,1.0,1.0
27/04/2019,Crystal Palace,Everton,0.0,0.0
27/04/2019,Fulham,Cardiff,1.0,0.0
27/04/2019,Southampton,Bournemouth,3.0,3.0
27/04/2019,Tottenham,West Ham,0.0,1.0
27/04/2019,Watford,Wolves,1.0,2.0
28/04/2019,Burnley,Man City,0.0,1.0
28/04/2019,Leicester,Arsenal,3.0,0.0
28/04/2019,Man United,Chelsea,1.0,1.0
03/05/2019,Everton,Burnley,2.0,0.0
04/05/2019,Bournemouth,Tottenham,1.0,0.0
04/05/2019,Cardiff,Crystal Palace,2.0,3.0
04/05/2019,Newcastle,Liverpool,2.0,3.0
04/05/2019,West Ham,Southampton,3.0,0.0
04/05/2019,Wolves,Fulham,1.0,0.0
05/05/2019,Arsenal,Brighton,1.0,1.0
05/05/2019,Chelsea,Watford,3.0,0.0
05/05/2019,Huddersfield,Man United,1.0,1.0
06/05/2019,Man City,Leicester,1.0,0.0
12/05/2019,Brighton,Man City,1.0,4.0
12/05/2019,Burnley,Arsenal,1.0,3.0
12/05/2019,Crystal Palace,Bournemouth,5.0,3.0
12/05/2019,Fulham,Newcastle,0.0,4.0
12/05/2019,Leicester,Chelsea,0.0,0.0
12/05/2019,Liverpool,Wolves,2.0,0.0
12/05/2019,Man United,Cardiff,0.0,2.0
12/05/2019,Southampton,Huddersfield,1.0,1.0
12/05/2019,Tottenham,Everton,2.0,2.0
12/05/2019,Watford,West Ham,1.0,4.0
