Dept,Num,Foyers,Mas_rev
01,1,59835,259963
01,2,17456,192835
01,3,30274,412589
01,4,55137,959378
01,5,62323,1531856
01,6,69547,2684773
01,7,40384,2669791
01,8,10131,1725176
02,1,77347,316021
02,2,18999,209453
02,3,29194,397693
02,4,51743,899866
02,5,55064,1348502
02,6,47352,1792364
02,7,17254,1105633
02,8,3201,576674
03,1,50695,221857
03,2,13527,149105
03,3,20539,279666
03,4,36397,632303
03,5,37309,915345
03,6,33406,1266297
03,7,11506,733535
03,8,1865,315941
04,1,24473,113370
04,2,6669,73525
04,3,10036,136517
04,4,16261,282289
04,5,17911,440662
04,6,16709,636894
04,7,7066,453790
04,8,1054,192856
05,1,18033,87859
05,2,5563,61337
05,3,8974,122089
05,4,14946,259542
05,5,15575,382890
05,6,15189,579765
05,7,6109,391291
05,8,930,150177
06,1,157967,682745
06,2,37504,413236
06,3,58521,797202
06,4,110935,1933564
06,5,131722,3232873
06,6,122417,4691575
06,7,70270,4672118
06,8,18059,3395646
07,1,43171,208192
07,2,12934,142538
07,3,19728,268438
07,4,32793,569264
07,5,35281,867872
07,6,33927,1290024
07,7,12452,796449
07,8,1931,348149
08,1,41187,169063
08,2,9795,107876
08,3,14643,199224
08,4,26163,455490
08,5,28653,703343
08,6,24289,920843
08,7,9016,577402
08,8,1403,259975
09,1,26374,117439
09,2,6348,69853
09,3,9277,126124
09,4,14945,259356
09,5,16547,406893
09,6,14165,535669
09,7,4752,302470
09,8,692,115315
10,1,40643,173485
10,2,10546,116362
10,3,17084,232791
10,4,30137,523302
10,5,31929,783081
10,6,28414,1078025
10,7,11909,774674
10,8,2598,469770
11,1,65500,277702
11,2,14848,163468
11,3,21860,297290
11,4,34425,597225
11,5,37337,918737
11,6,33452,1265958
11,7,11997,771002
11,8,2160,380120
12,1,37715,187782
12,2,10765,118579
12,3,16476,224416
12,4,28496,494259
12,5,29350,722424
12,6,28498,1085731
12,7,10416,666064
12,8,1810,313386
13,1,304096,1242540
13,2,67036,738620
13,3,105185,1431471
13,4,179658,3127367
13,5,209258,5130247
13,6,194666,7467746
13,7,111261,7368196
13,8,25177,4661785
14,1,83132,377957
14,2,24065,265560
14,3,39217,534289
14,4,67418,1171014
14,5,71737,1763805
14,6,71305,2720646
14,7,31906,2074402
14,8,5990,1267965
15,1,21433,109404
15,2,6271,68987
15,3,9345,127369
15,4,16196,280694
15,5,15170,372131
15,6,13880,525215
15,7,4904,312630
15,8,829,153331
16,1,50866,225366
16,2,13487,148534
16,3,21379,291271
16,4,35860,622719
16,5,37499,922981
16,6,34866,1324303
16,7,13342,859344
16,8,2421,421035
17,1,86027,402589
17,2,25510,281342
17,3,39661,539957
17,4,64916,1126075
17,5,70624,1742137
17,6,70929,2701482
17,7,30670,1985616
17,8,5653,1031869
18,1,41409,173188
18,2,10951,120819
18,3,17334,236478
18,4,32147,559112
18,5,34125,837166
18,6,31329,1190524
18,7,11959,766440
18,8,1899,330421
19,1,31347,154478
19,2,9127,100626
19,3,14515,197860
19,4,25381,440649
19,5,26422,649637
19,6,25220,958633
19,7,9411,602197
19,8,1417,280633
21,1,55345,255548
21,2,16413,181157
21,3,27338,372707
21,4,50880,885505
21,5,56800,1394275
21,6,56812,2180875
21,7,27642,1796775
21,8,5294,958013
22,1,71947,343262
22,2,22124,244003
22,3,35263,480444
22,4,60232,1046412
22,5,62437,1537858
22,6,66051,2517147
22,7,25946,1664555
22,8,4161,707475
23,1,21047,101522
23,2,5210,57287
23,3,7848,106831
23,4,12902,223718
23,5,12206,298826
23,6,10476,394101
23,7,3270,206046
23,8,470,82290
24,1,64001,298671
24,2,17134,188723
24,3,26416,359641
24,4,42607,738482
24,5,43915,1081553
24,6,41233,1558319
24,7,14326,915108
24,8,2358,422760
25,1,55987,249024
25,2,15879,175185
25,3,25265,344501
25,4,48374,842721
25,5,55210,1355802
25,6,58644,2255339
25,7,31748,2076549
25,8,4979,835139
26,1,64958,303287
26,2,18401,202835
26,3,29183,397301
26,4,49109,853344
26,5,53735,1320515
26,6,52599,2007168
26,7,23273,1504942
26,8,4027,724901
27,1,67319,284415
27,2,18810,207684
27,3,31930,435066
27,4,55164,959222
27,5,62564,1540816
27,6,64634,2471053
27,7,27509,1765370
27,8,4135,693834
28,1,45211,197516
28,2,13292,146840
28,3,22556,307160
28,4,41226,716885
28,5,46705,1148777
28,6,48006,1838181
28,7,21050,1352399
28,8,3164,578873
29,1,104327,484150
29,2,32526,358980
29,3,52101,709345
29,4,89501,1554412
29,5,95861,2362053
29,6,101740,3888701
29,7,42940,2764590
29,8,6711,1171215
30,1,115721,500908
30,2,27262,300417
30,3,41800,568326
30,4,66851,1160647
30,5,73401,1807403
30,6,70618,2690834
30,7,31172,2020715
30,8,5702,1015298
31,1,163755,701045
31,2,39858,439376
31,3,66961,912308
31,4,115656,2012438
31,5,137837,3382085
31,6,137611,5300873
31,7,86259,5736165
31,8,17645,3240618
32,1,29179,140013
32,2,7816,86053
32,3,11887,161803
32,4,18805,326213
32,5,19500,479362
32,6,18895,718903
32,7,7698,495647
32,8,1267,239041
33,1,198153,879016
33,2,53515,590208
33,3,88309,1202452
33,4,148319,2578823
33,5,166952,4099722
33,6,164604,6313930
33,7,90293,5942373
33,8,18617,3410543
34,1,178867,764288
34,2,42472,467927
34,3,65620,892007
34,4,103776,1802842
34,5,113718,2793851
34,6,107931,4120008
34,7,53732,3530345
34,8,11124,2008820
35,1,110009,501288
35,2,32505,358608
35,3,55242,752888
35,4,94911,1649873
35,5,101780,2503116
35,6,112192,4306734
35,7,55027,3598206
35,8,9852,1813544
36,1,31604,146120
36,2,9008,99359
36,3,14051,191651
36,4,24478,425201
36,5,24721,606912
36,6,21292,805339
36,7,6824,430977
36,8,1112,203451
37,1,74825,322245
37,2,20030,221077
37,3,33319,454258
37,4,58497,1016043
37,5,63003,1551350
37,6,64103,2452607
37,7,31006,2018965
37,8,5486,981997
38,1,126252,582427
38,2,36958,407695
38,3,62163,846949
38,4,112807,1966084
38,5,133358,3275773
38,6,136710,5255664
38,7,73314,4808199
38,8,12583,2208364
39,1,29109,141487
39,2,9195,101487
39,3,14535,198129
39,4,26153,453987
39,5,28744,706760
39,6,28929,1104228
39,7,12120,780361
39,8,1785,312961
40,1,50228,241780
40,2,15486,170920
40,3,25559,347968
40,4,41536,720900
40,5,45438,1120558
40,6,46238,1759990
40,7,17734,1139248
40,8,2792,551141
41,1,38237,169291
41,2,11388,125666
41,3,19026,259390
41,4,34605,601017
41,5,36520,898124
41,6,36366,1384938
41,7,14283,917330
41,8,2263,414756
42,1,91887,419974
42,2,26434,291780
42,3,41821,570124
42,4,73554,1279277
42,5,79509,1952882
42,6,74907,2854542
42,7,29702,1909033
42,8,5158,945451
43,1,29362,146451
43,2,9023,99495
43,3,14142,192734
43,4,23622,410167
43,5,24265,595739
43,6,23080,875215
43,7,7812,496836
43,8,1226,233089
44,1,145064,650067
44,2,42115,464926
44,3,70785,963959
44,4,126106,2197335
44,5,145104,3565149
44,6,152656,5870828
44,7,79434,5190311
44,8,14023,2578594
45,1,74533,318200
45,2,20058,221320
45,3,34829,474928
45,4,65505,1140255
45,5,73723,1810289
45,6,74229,2843875
45,7,34775,2252413
45,8,5414,930192
46,1,25310,122034
46,2,6911,76132
46,3,10413,141621
46,4,17302,300291
46,5,18755,461812
46,6,18471,703839
46,7,7174,457871
46,8,1100,196879
47,1,51378,238545
47,2,14144,155783
47,3,21277,289742
47,4,33747,585122
47,5,34345,843447
47,6,30828,1167230
47,7,11653,747514
47,8,2139,401053
48,1,12025,55978
48,2,2984,32929
48,3,4409,60081
48,4,7790,135222
48,5,7749,190383
48,6,7498,285982
48,7,2475,156780
48,8,371,65623
49,1,86248,399971
49,2,27267,301005
49,3,45112,614656
49,4,75676,1314084
49,5,79769,1964890
49,6,83132,3164078
49,7,33285,2150021
49,8,5940,1061162
50,1,60233,286109
50,2,18418,203175
50,3,28782,392611
50,4,49857,866371
50,5,52592,1295250
50,6,52860,2008542
50,7,19970,1274478
50,8,3242,589117
51,1,68119,282060
51,2,17028,187917
51,3,27878,380168
51,4,52188,909047
51,5,59550,1459873
51,6,56709,2168519
51,7,28783,1898540
51,8,6958,1205481
52,1,23649,104731
52,2,6817,75171
52,3,10483,142930
52,4,18874,328316
52,5,20245,496039
52,6,16926,640709
52,7,5332,338144
52,8,873,150271
53,1,32221,154613
53,2,10697,117993
53,3,17521,238886
53,4,30866,536030
53,5,30237,743518
53,6,32262,1224574
53,7,10929,697622
53,8,1800,363971
54,1,89560,375112
54,2,22689,250292
54,3,35585,484872
54,4,64214,1117127
54,5,75349,1852505
54,6,73260,2803211
54,7,34965,2271526
54,8,5824,1020218
55,1,24539,108556
55,2,6761,74590
55,3,10385,141528
55,4,17935,311955
55,5,20455,501980
55,6,18076,686293
55,7,6193,394189
55,8,943,169458
56,1,87255,411254
56,2,27262,301002
56,3,43776,595922
56,4,75154,1304901
56,5,79388,1956354
56,6,85028,3248134
56,7,35729,2305786
56,8,5955,1092185
57,1,127073,545351
57,2,33064,364467
57,3,50540,688376
57,4,90726,1581589
57,5,111548,2743531
57,6,105491,4029254
57,7,51281,3351386
57,8,8932,1535684
58,1,31017,132852
58,2,8394,92576
58,3,12513,170431
58,4,22673,394341
58,5,23449,575608
58,6,20398,769922
58,7,6801,431523
58,8,1096,194219
59,1,373438,1480895
59,2,83813,923499
59,3,128814,1753613
59,4,225471,3922071
59,5,250718,6147419
59,6,223724,8543490
59,7,109018,7130273
59,8,22516,4072487
60,1,88470,372145
60,2,24186,267013
60,3,41635,567255
60,4,74248,1292691
60,5,87082,2136979
60,6,85508,3275615
60,7,41088,2668389
60,8,7502,1312975
61,1,37797,168858
61,2,10826,119484
61,3,16744,228186
61,4,29527,512874
61,5,29590,727249
61,6,27346,1032620
61,7,8825,561779
61,8,1564,283427
62,1,219785,909565
62,2,52464,577842
62,3,80344,1093648
62,4,136351,2369080
62,5,144870,3553174
62,6,126423,4795667
62,7,48026,3076992
62,8,8124,1447015
63,1,78993,358505
63,2,21744,239747
63,3,35806,487881
63,4,63242,1100112
63,5,70107,1722130
63,6,68280,2612154
63,7,31554,2046880
63,8,5530,1019870
64,1,88174,404270
64,2,23885,263318
64,3,37939,516693
64,4,66271,1151278
64,5,72349,1780844
64,6,74158,2837540
64,7,35294,2303189
64,8,7456,1344158
65,1,36021,164007
65,2,9316,102582
65,3,14375,195696
65,4,23838,413386
65,5,25497,627275
65,6,23654,898010
65,7,8304,528426
65,8,1194,221711
66,1,82640,345732
66,2,18999,209335
66,3,28768,391361
66,4,44770,776624
66,5,48259,1187737
66,6,44280,1681420
66,7,17126,1101513
66,8,3289,617349
67,1,121305,514578
67,2,32660,360514
67,3,54107,737129
67,4,98316,1711270
67,5,118793,2921947
67,6,122838,4722616
67,7,64593,4223489
67,8,12739,2246748
68,1,78677,341340
68,2,21547,237879
68,3,35214,479715
68,4,64243,1118332
68,5,76976,1895231
68,6,83141,3205718
68,7,50681,3347778
68,8,11449,2010860
69,1,201778,862101
69,2,50460,556521
69,3,83947,1144061
69,4,161514,2818334
69,5,196074,4796991
69,6,182262,7016724
69,7,116660,7794795
69,8,29267,5459512
70,1,28190,131273
70,2,8752,96634
70,3,13903,189420
70,4,24884,432415
70,5,26133,641823
70,6,23487,891104
70,7,8057,512337
70,8,1197,206482
71,1,65318,307522
71,2,19958,220260
71,3,31299,426856
71,4,57046,992209
71,5,61441,1508859
71,6,57757,2197398
71,7,21975,1414850
71,8,3743,679744
72,1,64445,281103
72,2,18434,203602
72,3,30347,413694
72,4,55066,957798
72,5,59756,1471597
72,6,60478,2302567
72,7,22500,1436714
72,8,3380,609244
73,1,42367,203420
73,2,13447,148503
73,3,23124,315172
73,4,43386,756064
73,5,50914,1249727
73,6,50355,1935954
73,7,24550,1589468
73,8,4622,880066
74,1,69312,310168
74,2,19542,215614
74,3,33335,454180
74,4,66355,1158036
74,5,83050,2037072
74,6,93152,3627238
74,7,72942,4928366
74,8,20632,3480012
75,1,310438,1142788
75,2,52430,577491
75,3,81973,1113152
75,4,150562,2636164
75,5,254782,6316914
75,6,265203,10144465
75,7,198262,13729903
75,8,110582,28136231
76,1,158524,650731
76,2,39919,440281
76,3,63523,865902
76,4,116505,2030014
76,5,131133,3219391
76,6,124446,4753915
76,7,58139,3762745
76,8,10116,1764471
77,1,138581,560700
77,2,34653,382292
77,3,61363,835814
77,4,120243,2099717
77,5,154946,3798066
77,6,152802,5907798
77,7,92481,6033278
77,8,14107,2425818
78,1,115779,478687
78,2,27514,303686
78,3,47801,651010
78,4,100454,1756749
78,5,145104,3574827
78,6,154568,5993941
78,7,135219,9245320
78,8,45024,8369452
79,1,44899,213490
79,2,13231,145789
79,3,21420,292110
79,4,36406,631858
79,5,38536,949680
79,6,38377,1456786
79,7,15271,980197
79,8,2296,410608
80,1,79239,327129
80,2,19614,216159
80,3,31432,427763
80,4,53724,934138
80,5,57605,1416008
80,6,52088,1978406
80,7,21328,1375558
80,8,4112,781280
81,1,54757,252759
81,2,14999,165263
81,3,22828,310515
81,4,37315,647876
81,5,40252,991512
81,6,37975,1444485
81,7,14972,961373
81,8,2673,466312
82,1,37847,173364
82,2,10158,111871
82,3,15693,213462
82,4,23946,415204
82,5,26027,641348
82,6,24347,926175
82,7,9099,581019
82,8,1585,297695
83,1,146813,652047
83,2,37467,413154
83,3,59237,807021
83,4,103286,1797102
83,5,118000,2901851
83,6,119127,4562300
83,7,59636,3889458
83,8,11624,2189339
84,1,86277,386215
84,2,21992,242278
84,3,33917,460887
84,4,53532,929084
84,5,56978,1399186
84,6,53245,2029438
84,7,24088,1571782
84,8,4699,868199
85,1,66497,337935
85,2,23667,261117
85,3,39471,537847
85,4,69005,1199906
85,5,73456,1813770
85,6,79746,3028191
85,7,26824,1712857
85,8,4510,856913
86,1,55342,242140
86,2,14823,163287
86,3,23964,326200
86,4,40901,710324
86,5,43188,1062294
86,6,43201,1644158
86,7,18068,1166593
86,8,2837,496563
87,1,50633,218837
87,2,12588,138777
87,3,20419,278233
87,4,36799,639500
87,5,38823,952986
87,6,37799,1440438
87,7,15604,1004185
87,8,2465,471038
88,1,50289,225175
88,2,14584,160825
88,3,22390,305174
88,4,38597,670325
88,5,40399,993114
88,6,35455,1344816
88,7,12398,789971
88,8,2081,383979
89,1,43834,186047
89,2,11883,131259
89,3,19543,266211
89,4,35338,614076
89,5,38117,934453
89,6,34860,1324013
89,7,12917,826663
89,8,2183,380102
90,1,15640,66897
90,2,4243,46795
90,3,6758,92169
90,4,13036,226975
90,5,14402,353971
90,6,14590,558338
90,7,7463,486736
90,8,1164,200923
91,1,123068,477115
91,2,28153,310700
91,3,50426,687337
91,4,104572,1829860
91,5,143203,3510410
91,6,139688,5406067
91,7,98856,6576792
91,8,18096,2921366
92,1,152170,607955
92,2,31487,347149
92,3,51537,701004
92,4,106361,1864568
92,5,171693,4244542
92,6,176209,6769880
92,7,147903,10280074
92,8,69017,13991755
93,1,260456,924890
93,2,46114,508445
93,3,76279,1035216
93,4,138751,2424629
93,5,170437,4157809
93,6,125087,4746113
93,7,57803,3773610
93,8,8679,1394205
94,1,160203,604499
94,2,31791,350487
94,3,53089,722297
94,4,112093,1965737
94,5,160602,3941563
94,6,141041,5408187
94,7,94608,6385454
94,8,25227,4352343
95,1,138729,532036
95,2,29628,326807
95,3,52102,708443
95,4,100237,1751095
95,5,132911,3257673
95,6,122049,4704609
95,7,78667,5188954
95,8,13320,2227457
2A,1,20944,91176
2A,2,4926,54251
2A,3,8655,117892
2A,4,15050,261864
2A,5,16370,401093
2A,6,14566,554562
2A,7,7321,481378
2A,8,1620,296056
2B,1,28187,121245
2B,2,6226,68607
2B,3,10565,143882
2B,4,15686,272648
2B,5,16912,414602
2B,6,14406,545758
2B,7,6274,409107
2B,8,1480,267292
971,1,119423,325410
971,2,11491,126162
971,3,16835,227784
971,4,25521,443482
971,5,33235,812997
971,6,26818,1019811
971,7,13878,922411
971,8,2784,457836
972,1,100957,320600
972,2,11369,124796
972,3,18907,256343
972,4,26520,459257
972,5,34079,835551
972,6,27747,1058232
972,7,14295,948873
972,8,2877,508570
973,1,53718,88503
973,2,3114,34305
973,3,5548,75019
973,4,8560,149247
973,5,14151,347640
973,6,11943,453760
973,7,6954,462643
973,8,1439,230511
974,1,248061,722235
974,2,24634,270597
974,3,38548,522551
974,4,51017,880695
974,5,54740,1344278
974,6,51889,1991726
974,7,32211,2177623
974,8,7891,1303822
976,1,42866,30419
976,2,1193,13136
976,3,2767,37278
976,4,3250,55962
976,5,7336,182608
976,6,5351,203114
976,7,3294,217765
976,8,577,89608
